%YAML 1.1
%TAG !u! tag:unity3d.com,2011:
--- !u!74 &7400000
AnimationClip:
  m_ObjectHideFlags: 0
  m_CorrespondingSourceObject: {fileID: 0}
  m_PrefabInstance: {fileID: 0}
  m_PrefabAsset: {fileID: 0}
  m_Name: Attack
  serializedVersion: 6
  m_Legacy: 0
  m_Compressed: 0
  m_UseHighQualityCurve: 1
  m_RotationCurves: []
  m_CompressedRotationCurves: []
  m_EulerCurves: []
  m_PositionCurves: []
  m_ScaleCurves: []
  m_FloatCurves: []
  m_PPtrCurves:
  - curve:
    - time: 0
      value: {fileID: 21300000, guid: 99ad654169970fc47ac859e1926d90bd, type: 3}
    - time: 0.13333334
      value: {fileID: 21300000, guid: 16707d1ef5f830140a4448ec387667d8, type: 3}
    - time: 0.25
      value: {fileID: 21300000, guid: f813c15d5124eb94d95db35e816b1359, type: 3}
    - time: 0.36666667
      value: {fileID: 21300000, guid: 6422d50b9002b2747934a5a8e8002f55, type: 3}
    - time: 0.5
      value: {fileID: 21300000, guid: 02fe029341d341f41819c362cb0a1345, type: 3}
    attribute: m_Sprite
    path: 
    classID: 212
    script: {fileID: 0}
  m_SampleRate: 60
  m_WrapMode: 0
  m_Bounds:
    m_Center: {x: 0, y: 0, z: 0}
    m_Extent: {x: 0, y: 0, z: 0}
  m_ClipBindingConstant:
    genericBindings:
    - serializedVersion: 2
      path: 0
      attribute: 0
      script: {fileID: 0}
      typeID: 212
      customType: 23
      isPPtrCurve: 1
    pptrCurveMapping:
    - {fileID: 21300000, guid: 99ad654169970fc47ac859e1926d90bd, type: 3}
    - {fileID: 21300000, guid: 16707d1ef5f830140a4448ec387667d8, type: 3}
    - {fileID: 21300000, guid: f813c15d5124eb94d95db35e816b1359, type: 3}
    - {fileID: 21300000, guid: 6422d50b9002b2747934a5a8e8002f55, type: 3}
    - {fileID: 21300000, guid: 02fe029341d341f41819c362cb0a1345, type: 3}
  m_AnimationClipSettings:
    serializedVersion: 2
    m_AdditiveReferencePoseClip: {fileID: 0}
    m_AdditiveReferencePoseTime: 0
    m_StartTime: 0
    m_StopTime: 0.51666665
    m_OrientationOffsetY: 0
    m_Level: 0
    m_CycleOffset: 0
    m_HasAdditiveReferencePose: 0
    m_LoopTime: 0
    m_LoopBlend: 0
    m_LoopBlendOrientation: 0
    m_LoopBlendPositionY: 0
    m_LoopBlendPositionXZ: 0
    m_KeepOriginalOrientation: 0
    m_KeepOriginalPositionY: 1
    m_KeepOriginalPositionXZ: 0
    m_HeightFromFeet: 0
    m_Mirror: 0
  m_EditorCurves: []
  m_EulerEditorCurves: []
  m_HasGenericRootTransform: 0
  m_HasMotionFloatCurves: 0
  m_Events: []
