%YAML 1.1
%TAG !u! tag:unity3d.com,2011:
--- !u!29 &1
OcclusionCullingSettings:
  m_ObjectHideFlags: 0
  serializedVersion: 2
  m_OcclusionBakeSettings:
    smallestOccluder: 5
    smallestHole: 0.25
    backfaceThreshold: 100
  m_SceneGUID: 00000000000000000000000000000000
  m_OcclusionCullingData: {fileID: 0}
--- !u!104 &2
RenderSettings:
  m_ObjectHideFlags: 0
  serializedVersion: 9
  m_Fog: 0
  m_FogColor: {r: 0.0025364957, g: 0.4692978, b: 0.5377358, a: 1}
  m_FogMode: 3
  m_FogDensity: 0.03
  m_LinearFogStart: 0
  m_LinearFogEnd: 300
  m_AmbientSkyColor: {r: 0.6541474, g: 0.6982874, b: 0.7924528, a: 1}
  m_AmbientEquatorColor: {r: 0.3529412, g: 0.43529412, b: 0.5019608, a: 1}
  m_AmbientGroundColor: {r: 0, g: 0, b: 0, a: 1}
  m_AmbientIntensity: 1
  m_AmbientMode: 1
  m_SubtractiveShadowColor: {r: 0, g: 0, b: 0, a: 1}
  m_SkyboxMaterial: {fileID: 0}
  m_HaloStrength: 0.5
  m_FlareStrength: 1
  m_FlareFadeSpeed: 3
  m_HaloTexture: {fileID: 0}
  m_SpotCookie: {fileID: 10001, guid: 0000000000000000e000000000000000, type: 0}
  m_DefaultReflectionMode: 0
  m_DefaultReflectionResolution: 128
  m_ReflectionBounces: 1
  m_ReflectionIntensity: 1
  m_CustomReflection: {fileID: 0}
  m_Sun: {fileID: 0}
  m_IndirectSpecularColor: {r: 0, g: 0, b: 0, a: 1}
  m_UseRadianceAmbientProbe: 0
--- !u!157 &3
LightmapSettings:
  m_ObjectHideFlags: 0
  serializedVersion: 11
  m_GIWorkflowMode: 1
  m_GISettings:
    serializedVersion: 2
    m_BounceScale: 1
    m_IndirectOutputScale: 1
    m_AlbedoBoost: 1
    m_EnvironmentLightingMode: 1
    m_EnableBakedLightmaps: 0
    m_EnableRealtimeLightmaps: 0
  m_LightmapEditorSettings:
    serializedVersion: 12
    m_Resolution: 2
    m_BakeResolution: 32
    m_AtlasSize: 1024
    m_AO: 0
    m_AOMaxDistance: 1
    m_CompAOExponent: 1
    m_CompAOExponentDirect: 0.3
    m_ExtractAmbientOcclusion: 0
    m_Padding: 2
    m_LightmapParameters: {fileID: 0}
    m_LightmapsBakeMode: 0
    m_TextureCompression: 1
    m_FinalGather: 0
    m_FinalGatherFiltering: 1
    m_FinalGatherRayCount: 256
    m_ReflectionCompression: 2
    m_MixedBakeMode: 0
    m_BakeBackend: 1
    m_PVRSampling: 1
    m_PVRDirectSampleCount: 16
    m_PVRSampleCount: 128
    m_PVRBounces: 4
    m_PVREnvironmentSampleCount: 128
    m_PVREnvironmentReferencePointCount: 2048
    m_PVRFilteringMode: 2
    m_PVRDenoiserTypeDirect: 0
    m_PVRDenoiserTypeIndirect: 0
    m_PVRDenoiserTypeAO: 0
    m_PVRFilterTypeDirect: 0
    m_PVRFilterTypeIndirect: 0
    m_PVRFilterTypeAO: 0
    m_PVREnvironmentMIS: 0
    m_PVRCulling: 1
    m_PVRFilteringGaussRadiusDirect: 1
    m_PVRFilteringGaussRadiusIndirect: 5
    m_PVRFilteringGaussRadiusAO: 2
    m_PVRFilteringAtrousPositionSigmaDirect: 0.5
    m_PVRFilteringAtrousPositionSigmaIndirect: 2
    m_PVRFilteringAtrousPositionSigmaAO: 1
    m_ExportTrainingData: 0
    m_TrainingDataDestination: TrainingData
    m_LightProbeSampleCountMultiplier: 4
  m_LightingDataAsset: {fileID: 112000000, guid: 6bea6719f1b1c464d809e29fcfd78bc3,
    type: 2}
  m_UseShadowmask: 0
--- !u!196 &4
NavMeshSettings:
  serializedVersion: 2
  m_ObjectHideFlags: 0
  m_BuildSettings:
    serializedVersion: 2
    agentTypeID: 0
    agentRadius: 0.25
    agentHeight: 2
    agentSlope: 45
    agentClimb: 0.4
    ledgeDropHeight: 0
    maxJumpAcrossDistance: 0
    minRegionArea: 2
    manualCellSize: 0
    cellSize: 0.083333336
    manualTileSize: 0
    tileSize: 256
    accuratePlacement: 0
    debug:
      m_Flags: 0
  m_NavMeshData: {fileID: 23800000, guid: 1c17d1473df9595419b9463f0b7cdec9, type: 2}
--- !u!1001 &50719414
PrefabInstance:
  m_ObjectHideFlags: 0
  serializedVersion: 2
  m_Modification:
    m_TransformParent: {fileID: 840455984}
    m_Modifications:
    - target: {fileID: 4078855156467671687, guid: 39d0626ce76d1884da050e0e509a5540,
        type: 3}
      propertyPath: player
      value: 
      objectReference: {fileID: 2008973354732098957}
    - target: {fileID: 4078855156467671687, guid: 39d0626ce76d1884da050e0e509a5540,
        type: 3}
      propertyPath: gameEnding
      value: 
      objectReference: {fileID: 5642716984738007026}
    - target: {fileID: 6199127110365035078, guid: 39d0626ce76d1884da050e0e509a5540,
        type: 3}
      propertyPath: m_LocalPosition.x
      value: -2.6
      objectReference: {fileID: 0}
    - target: {fileID: 6199127110365035078, guid: 39d0626ce76d1884da050e0e509a5540,
        type: 3}
      propertyPath: m_LocalPosition.y
      value: 0
      objectReference: {fileID: 0}
    - target: {fileID: 6199127110365035078, guid: 39d0626ce76d1884da050e0e509a5540,
        type: 3}
      propertyPath: m_LocalPosition.z
      value: -8.5
      objectReference: {fileID: 0}
    - target: {fileID: 6199127110365035078, guid: 39d0626ce76d1884da050e0e509a5540,
        type: 3}
      propertyPath: m_LocalRotation.x
      value: -0
      objectReference: {fileID: 0}
    - target: {fileID: 6199127110365035078, guid: 39d0626ce76d1884da050e0e509a5540,
        type: 3}
      propertyPath: m_LocalRotation.y
      value: 0.25881857
      objectReference: {fileID: 0}
    - target: {fileID: 6199127110365035078, guid: 39d0626ce76d1884da050e0e509a5540,
        type: 3}
      propertyPath: m_LocalRotation.z
      value: -0
      objectReference: {fileID: 0}
    - target: {fileID: 6199127110365035078, guid: 39d0626ce76d1884da050e0e509a5540,
        type: 3}
      propertyPath: m_LocalRotation.w
      value: 0.965926
      objectReference: {fileID: 0}
    - target: {fileID: 6199127110365035078, guid: 39d0626ce76d1884da050e0e509a5540,
        type: 3}
      propertyPath: m_RootOrder
      value: 1
      objectReference: {fileID: 0}
    - target: {fileID: 6199127110365035078, guid: 39d0626ce76d1884da050e0e509a5540,
        type: 3}
      propertyPath: m_LocalEulerAnglesHint.x
      value: 0
      objectReference: {fileID: 0}
    - target: {fileID: 6199127110365035078, guid: 39d0626ce76d1884da050e0e509a5540,
        type: 3}
      propertyPath: m_LocalEulerAnglesHint.y
      value: 30.000002
      objectReference: {fileID: 0}
    - target: {fileID: 6199127110365035078, guid: 39d0626ce76d1884da050e0e509a5540,
        type: 3}
      propertyPath: m_LocalEulerAnglesHint.z
      value: 0
      objectReference: {fileID: 0}
    - target: {fileID: 8038108750564668487, guid: 39d0626ce76d1884da050e0e509a5540,
        type: 3}
      propertyPath: m_Name
      value: Gargoyle (1)
      objectReference: {fileID: 0}
    m_RemovedComponents: []
  m_SourcePrefab: {fileID: 100100000, guid: 39d0626ce76d1884da050e0e509a5540, type: 3}
--- !u!4 &50719415 stripped
Transform:
  m_CorrespondingSourceObject: {fileID: 6199127110365035078, guid: 39d0626ce76d1884da050e0e509a5540,
    type: 3}
  m_PrefabInstance: {fileID: 50719414}
  m_PrefabAsset: {fileID: 0}
--- !u!1 &98909508
GameObject:
  m_ObjectHideFlags: 0
  m_CorrespondingSourceObject: {fileID: 0}
  m_PrefabInstance: {fileID: 0}
  m_PrefabAsset: {fileID: 0}
  serializedVersion: 6
  m_Component:
  - component: {fileID: 98909509}
  - component: {fileID: 98909510}
  m_Layer: 0
  m_Name: Sensor
  m_TagString: Untagged
  m_Icon: {fileID: 0}
  m_NavMeshLayer: 0
  m_StaticEditorFlags: 0
  m_IsActive: 1
--- !u!4 &98909509
Transform:
  m_ObjectHideFlags: 0
  m_CorrespondingSourceObject: {fileID: 0}
  m_PrefabInstance: {fileID: 0}
  m_PrefabAsset: {fileID: 0}
  m_GameObject: {fileID: 98909508}
  m_LocalRotation: {x: 0, y: 0, z: 0, w: 1}
  m_LocalPosition: {x: 0, y: 0, z: 0}
  m_LocalScale: {x: 1, y: 1, z: 1}
  m_Children: []
  m_Father: {fileID: 6925745739663848697}
  m_RootOrder: 3
  m_LocalEulerAnglesHint: {x: 0, y: 0, z: 0}
--- !u!136 &98909510
CapsuleCollider:
  m_ObjectHideFlags: 0
  m_CorrespondingSourceObject: {fileID: 0}
  m_PrefabInstance: {fileID: 0}
  m_PrefabAsset: {fileID: 0}
  m_GameObject: {fileID: 98909508}
  m_Material: {fileID: 0}
  m_IsTrigger: 1
  m_Enabled: 1
  m_Radius: 3.26
  m_Height: 1
  m_Direction: 1
  m_Center: {x: 0, y: 0, z: 0}
--- !u!1 &177692766
GameObject:
  m_ObjectHideFlags: 0
  m_CorrespondingSourceObject: {fileID: 0}
  m_PrefabInstance: {fileID: 0}
  m_PrefabAsset: {fileID: 0}
  serializedVersion: 6
  m_Component:
  - component: {fileID: 177692767}
  m_Layer: 0
  m_Name: Waypoint (7)
  m_TagString: Untagged
  m_Icon: {fileID: 0}
  m_NavMeshLayer: 0
  m_StaticEditorFlags: 0
  m_IsActive: 1
--- !u!4 &177692767
Transform:
  m_ObjectHideFlags: 0
  m_CorrespondingSourceObject: {fileID: 0}
  m_PrefabInstance: {fileID: 0}
  m_PrefabAsset: {fileID: 0}
  m_GameObject: {fileID: 177692766}
  m_LocalRotation: {x: -0, y: -0, z: -0, w: 1}
  m_LocalPosition: {x: 7.411208, y: 11.845197, z: -10.294931}
  m_LocalScale: {x: 1, y: 1, z: 1}
  m_Children: []
  m_Father: {fileID: 894613339}
  m_RootOrder: 7
  m_LocalEulerAnglesHint: {x: 0, y: 0, z: 0}
--- !u!1 &206311976
GameObject:
  m_ObjectHideFlags: 0
  m_CorrespondingSourceObject: {fileID: 0}
  m_PrefabInstance: {fileID: 0}
  m_PrefabAsset: {fileID: 0}
  serializedVersion: 6
  m_Component:
  - component: {fileID: 206311977}
  - component: {fileID: 206311978}
  m_Layer: 0
  m_Name: Escape
  m_TagString: Untagged
  m_Icon: {fileID: 0}
  m_NavMeshLayer: 0
  m_StaticEditorFlags: 0
  m_IsActive: 1
--- !u!4 &206311977
Transform:
  m_ObjectHideFlags: 0
  m_CorrespondingSourceObject: {fileID: 0}
  m_PrefabInstance: {fileID: 0}
  m_PrefabAsset: {fileID: 0}
  m_GameObject: {fileID: 206311976}
  m_LocalRotation: {x: 0, y: 0, z: 0, w: 1}
  m_LocalPosition: {x: 0, y: 0, z: 0}
  m_LocalScale: {x: 1, y: 1, z: 1}
  m_Children: []
  m_Father: {fileID: 1466929699}
  m_RootOrder: 1
  m_LocalEulerAnglesHint: {x: 0, y: 0, z: 0}
--- !u!82 &206311978
AudioSource:
  m_ObjectHideFlags: 0
  m_CorrespondingSourceObject: {fileID: 0}
  m_PrefabInstance: {fileID: 0}
  m_PrefabAsset: {fileID: 0}
  m_GameObject: {fileID: 206311976}
  m_Enabled: 1
  serializedVersion: 4
  OutputAudioMixerGroup: {fileID: 0}
  m_audioClip: {fileID: 8300000, guid: c0f716a9e9ac00c438b95158ba195a58, type: 3}
  m_PlayOnAwake: 0
  m_Volume: 1
  m_Pitch: 1
  Loop: 0
  Mute: 0
  Spatialize: 0
  SpatializePostEffects: 0
  Priority: 128
  DopplerLevel: 1
  MinDistance: 1
  MaxDistance: 500
  Pan2D: 0
  rolloffMode: 0
  BypassEffects: 0
  BypassListenerEffects: 0
  BypassReverbZones: 0
  rolloffCustomCurve:
    serializedVersion: 2
    m_Curve:
    - serializedVersion: 3
      time: 0
      value: 1
      inSlope: 0
      outSlope: 0
      tangentMode: 0
      weightedMode: 0
      inWeight: 0.33333334
      outWeight: 0.33333334
    - serializedVersion: 3
      time: 1
      value: 0
      inSlope: 0
      outSlope: 0
      tangentMode: 0
      weightedMode: 0
      inWeight: 0.33333334
      outWeight: 0.33333334
    m_PreInfinity: 2
    m_PostInfinity: 2
    m_RotationOrder: 4
  panLevelCustomCurve:
    serializedVersion: 2
    m_Curve:
    - serializedVersion: 3
      time: 0
      value: 0
      inSlope: 0
      outSlope: 0
      tangentMode: 0
      weightedMode: 0
      inWeight: 0.33333334
      outWeight: 0.33333334
    m_PreInfinity: 2
    m_PostInfinity: 2
    m_RotationOrder: 4
  spreadCustomCurve:
    serializedVersion: 2
    m_Curve:
    - serializedVersion: 3
      time: 0
      value: 0
      inSlope: 0
      outSlope: 0
      tangentMode: 0
      weightedMode: 0
      inWeight: 0.33333334
      outWeight: 0.33333334
    m_PreInfinity: 2
    m_PostInfinity: 2
    m_RotationOrder: 4
  reverbZoneMixCustomCurve:
    serializedVersion: 2
    m_Curve:
    - serializedVersion: 3
      time: 0
      value: 1
      inSlope: 0
      outSlope: 0
      tangentMode: 0
      weightedMode: 0
      inWeight: 0.33333334
      outWeight: 0.33333334
    m_PreInfinity: 2
    m_PostInfinity: 2
    m_RotationOrder: 4
--- !u!1 &258812315
GameObject:
  m_ObjectHideFlags: 3
  m_CorrespondingSourceObject: {fileID: 0}
  m_PrefabInstance: {fileID: 0}
  m_PrefabAsset: {fileID: 0}
  serializedVersion: 6
  m_Component:
  - component: {fileID: 258812316}
  - component: {fileID: 258812319}
  - component: {fileID: 258812317}
  m_Layer: 0
  m_Name: cm
  m_TagString: Untagged
  m_Icon: {fileID: 0}
  m_NavMeshLayer: 0
  m_StaticEditorFlags: 0
  m_IsActive: 1
--- !u!4 &258812316
Transform:
  m_ObjectHideFlags: 3
  m_CorrespondingSourceObject: {fileID: 0}
  m_PrefabInstance: {fileID: 0}
  m_PrefabAsset: {fileID: 0}
  m_GameObject: {fileID: 258812315}
  m_LocalRotation: {x: -0, y: -0, z: -0, w: 1}
  m_LocalPosition: {x: 0, y: 0, z: 0}
  m_LocalScale: {x: 1, y: 1, z: 1}
  m_Children: []
  m_Father: {fileID: 1527396177}
  m_RootOrder: 0
  m_LocalEulerAnglesHint: {x: 0, y: 0, z: 0}
--- !u!114 &258812317
MonoBehaviour:
  m_ObjectHideFlags: 3
  m_CorrespondingSourceObject: {fileID: 0}
  m_PrefabInstance: {fileID: 0}
  m_PrefabAsset: {fileID: 0}
  m_GameObject: {fileID: 258812315}
  m_Enabled: 1
  m_EditorHideFlags: 0
  m_Script: {fileID: 11500000, guid: 6ad980451443d70438faac0bc6c235a0, type: 3}
  m_Name: 
  m_EditorClassIdentifier: 
  m_LookaheadTime: 0.5
  m_LookaheadSmoothing: 10
  m_LookaheadIgnoreY: 0
  m_XDamping: 1
  m_YDamping: 1.7
  m_ZDamping: 1
  m_ScreenX: 0.5
  m_ScreenY: 0.5
  m_CameraDistance: 8
  m_DeadZoneWidth: 0.1
  m_DeadZoneHeight: 0.1
  m_DeadZoneDepth: 0
  m_UnlimitedSoftZone: 0
  m_SoftZoneWidth: 0.8
  m_SoftZoneHeight: 0.8
  m_BiasX: 0
  m_BiasY: 0
  m_CenterOnActivate: 1
  m_GroupFramingMode: 2
  m_AdjustmentMode: 2
  m_GroupFramingSize: 0.8
  m_MaxDollyIn: 5000
  m_MaxDollyOut: 5000
  m_MinimumDistance: 1
  m_MaximumDistance: 5000
  m_MinimumFOV: 3
  m_MaximumFOV: 60
  m_MinimumOrthoSize: 1
  m_MaximumOrthoSize: 100
--- !u!114 &258812319
MonoBehaviour:
  m_ObjectHideFlags: 3
  m_CorrespondingSourceObject: {fileID: 0}
  m_PrefabInstance: {fileID: 0}
  m_PrefabAsset: {fileID: 0}
  m_GameObject: {fileID: 258812315}
  m_Enabled: 1
  m_EditorHideFlags: 0
  m_Script: {fileID: 11500000, guid: ac0b09e7857660247b1477e93731de29, type: 3}
  m_Name: 
  m_EditorClassIdentifier: 
--- !u!1 &285650375
GameObject:
  m_ObjectHideFlags: 0
  m_CorrespondingSourceObject: {fileID: 0}
  m_PrefabInstance: {fileID: 0}
  m_PrefabAsset: {fileID: 0}
  serializedVersion: 6
  m_Component:
  - component: {fileID: 285650377}
  - component: {fileID: 285650376}
  m_Layer: 0
  m_Name: Ambient
  m_TagString: Untagged
  m_Icon: {fileID: 0}
  m_NavMeshLayer: 0
  m_StaticEditorFlags: 0
  m_IsActive: 1
--- !u!82 &285650376
AudioSource:
  m_ObjectHideFlags: 0
  m_CorrespondingSourceObject: {fileID: 0}
  m_PrefabInstance: {fileID: 0}
  m_PrefabAsset: {fileID: 0}
  m_GameObject: {fileID: 285650375}
  m_Enabled: 1
  serializedVersion: 4
  OutputAudioMixerGroup: {fileID: 0}
  m_audioClip: {fileID: 8300000, guid: 205287722f2b6b64583b86d65fdeeb11, type: 3}
  m_PlayOnAwake: 1
  m_Volume: 0.5
  m_Pitch: 1
  Loop: 1
  Mute: 0
  Spatialize: 0
  SpatializePostEffects: 0
  Priority: 128
  DopplerLevel: 1
  MinDistance: 1
  MaxDistance: 500
  Pan2D: 0
  rolloffMode: 0
  BypassEffects: 0
  BypassListenerEffects: 0
  BypassReverbZones: 0
  rolloffCustomCurve:
    serializedVersion: 2
    m_Curve:
    - serializedVersion: 3
      time: 0
      value: 1
      inSlope: 0
      outSlope: 0
      tangentMode: 0
      weightedMode: 0
      inWeight: 0.33333334
      outWeight: 0.33333334
    - serializedVersion: 3
      time: 1
      value: 0
      inSlope: 0
      outSlope: 0
      tangentMode: 0
      weightedMode: 0
      inWeight: 0.33333334
      outWeight: 0.33333334
    m_PreInfinity: 2
    m_PostInfinity: 2
    m_RotationOrder: 4
  panLevelCustomCurve:
    serializedVersion: 2
    m_Curve:
    - serializedVersion: 3
      time: 0
      value: 0
      inSlope: 0
      outSlope: 0
      tangentMode: 0
      weightedMode: 0
      inWeight: 0.33333334
      outWeight: 0.33333334
    m_PreInfinity: 2
    m_PostInfinity: 2
    m_RotationOrder: 4
  spreadCustomCurve:
    serializedVersion: 2
    m_Curve:
    - serializedVersion: 3
      time: 0
      value: 0
      inSlope: 0
      outSlope: 0
      tangentMode: 0
      weightedMode: 0
      inWeight: 0.33333334
      outWeight: 0.33333334
    m_PreInfinity: 2
    m_PostInfinity: 2
    m_RotationOrder: 4
  reverbZoneMixCustomCurve:
    serializedVersion: 2
    m_Curve:
    - serializedVersion: 3
      time: 0
      value: 1
      inSlope: 0
      outSlope: 0
      tangentMode: 0
      weightedMode: 0
      inWeight: 0.33333334
      outWeight: 0.33333334
    m_PreInfinity: 2
    m_PostInfinity: 2
    m_RotationOrder: 4
--- !u!4 &285650377
Transform:
  m_ObjectHideFlags: 0
  m_CorrespondingSourceObject: {fileID: 0}
  m_PrefabInstance: {fileID: 0}
  m_PrefabAsset: {fileID: 0}
  m_GameObject: {fileID: 285650375}
  m_LocalRotation: {x: -0, y: -0, z: -0, w: 1}
  m_LocalPosition: {x: 0, y: 0, z: 0}
  m_LocalScale: {x: 1, y: 1, z: 1}
  m_Children: []
  m_Father: {fileID: 1466929699}
  m_RootOrder: 0
  m_LocalEulerAnglesHint: {x: 0, y: 0, z: 0}
--- !u!1 &336560986
GameObject:
  m_ObjectHideFlags: 0
  m_CorrespondingSourceObject: {fileID: 0}
  m_PrefabInstance: {fileID: 0}
  m_PrefabAsset: {fileID: 0}
  serializedVersion: 6
  m_Component:
  - component: {fileID: 336560988}
  - component: {fileID: 336560987}
  m_Layer: 0
  m_Name: Directional Light
  m_TagString: Untagged
  m_Icon: {fileID: 0}
  m_NavMeshLayer: 0
  m_StaticEditorFlags: 0
  m_IsActive: 1
--- !u!108 &336560987
Light:
  m_ObjectHideFlags: 0
  m_CorrespondingSourceObject: {fileID: 0}
  m_PrefabInstance: {fileID: 0}
  m_PrefabAsset: {fileID: 0}
  m_GameObject: {fileID: 336560986}
  m_Enabled: 1
  serializedVersion: 10
  m_Type: 1
  m_Shape: 0
  m_Color: {r: 0.8746885, g: 0.94565094, b: 0.9811321, a: 1}
  m_Intensity: 2
  m_Range: 10
  m_SpotAngle: 30
  m_InnerSpotAngle: 21.80208
  m_CookieSize: 10
  m_Shadows:
    m_Type: 2
    m_Resolution: 3
    m_CustomResolution: -1
    m_Strength: 1
    m_Bias: 0.01
    m_NormalBias: 0.01
    m_NearPlane: 0.1
    m_CullingMatrixOverride:
      e00: 1
      e01: 0
      e02: 0
      e03: 0
      e10: 0
      e11: 1
      e12: 0
      e13: 0
      e20: 0
      e21: 0
      e22: 1
      e23: 0
      e30: 0
      e31: 0
      e32: 0
      e33: 1
    m_UseCullingMatrixOverride: 0
  m_Cookie: {fileID: 0}
  m_DrawHalo: 0
  m_Flare: {fileID: 0}
  m_RenderMode: 0
  m_CullingMask:
    serializedVersion: 2
    m_Bits: 4294967295
  m_RenderingLayerMask: 1
  m_Lightmapping: 4
  m_LightShadowCasterMode: 0
  m_AreaSize: {x: 1, y: 1}
  m_BounceIntensity: 0
  m_ColorTemperature: 6570
  m_UseColorTemperature: 0
  m_BoundingSphereOverride: {x: 0, y: 0, z: 0, w: 0}
  m_UseBoundingSphereOverride: 0
  m_ShadowRadius: 0
  m_ShadowAngle: 0
--- !u!4 &336560988
Transform:
  m_ObjectHideFlags: 0
  m_CorrespondingSourceObject: {fileID: 0}
  m_PrefabInstance: {fileID: 0}
  m_PrefabAsset: {fileID: 0}
  m_GameObject: {fileID: 336560986}
  m_LocalRotation: {x: 0.25488704, y: 0.16773126, z: -0.044943456, w: 0.95125127}
  m_LocalPosition: {x: 0, y: 0, z: 0}
  m_LocalScale: {x: 1, y: 1.0000002, z: 1}
  m_Children: []
  m_Father: {fileID: 0}
  m_RootOrder: 11
  m_LocalEulerAnglesHint: {x: 30, y: 20, z: 0}
--- !u!1 &372131255
GameObject:
  m_ObjectHideFlags: 0
  m_CorrespondingSourceObject: {fileID: 0}
  m_PrefabInstance: {fileID: 0}
  m_PrefabAsset: {fileID: 0}
  serializedVersion: 6
  m_Component:
  - component: {fileID: 372131256}
  m_Layer: 0
  m_Name: Waypoint
  m_TagString: Untagged
  m_Icon: {fileID: 0}
  m_NavMeshLayer: 0
  m_StaticEditorFlags: 0
  m_IsActive: 1
--- !u!4 &372131256
Transform:
  m_ObjectHideFlags: 0
  m_CorrespondingSourceObject: {fileID: 0}
  m_PrefabInstance: {fileID: 0}
  m_PrefabAsset: {fileID: 0}
  m_GameObject: {fileID: 372131255}
  m_LocalRotation: {x: -0, y: -0, z: -0, w: 1}
  m_LocalPosition: {x: -4.388792, y: 11.845197, z: -9.194931}
  m_LocalScale: {x: 1, y: 1, z: 1}
  m_Children: []
  m_Father: {fileID: 894613339}
  m_RootOrder: 0
  m_LocalEulerAnglesHint: {x: 0, y: 0, z: 0}
--- !u!1 &430190951
GameObject:
  m_ObjectHideFlags: 0
  m_CorrespondingSourceObject: {fileID: 0}
  m_PrefabInstance: {fileID: 0}
  m_PrefabAsset: {fileID: 0}
  serializedVersion: 6
  m_Component:
  - component: {fileID: 430190953}
  - component: {fileID: 430190952}
  m_Layer: 8
  m_Name: GlobalPost
  m_TagString: Untagged
  m_Icon: {fileID: 0}
  m_NavMeshLayer: 0
  m_StaticEditorFlags: 0
  m_IsActive: 1
--- !u!114 &430190952
MonoBehaviour:
  m_ObjectHideFlags: 0
  m_CorrespondingSourceObject: {fileID: 0}
  m_PrefabInstance: {fileID: 0}
  m_PrefabAsset: {fileID: 0}
  m_GameObject: {fileID: 430190951}
  m_Enabled: 1
  m_EditorHideFlags: 0
  m_Script: {fileID: 11500000, guid: 8b9a305e18de0c04dbd257a21cd47087, type: 3}
  m_Name: 
  m_EditorClassIdentifier: 
  sharedProfile: {fileID: 11400000, guid: c074e58fec2f9ab44b959cc60944f119, type: 2}
  isGlobal: 1
  blendDistance: 0
  weight: 1
  priority: 0
--- !u!4 &430190953
Transform:
  m_ObjectHideFlags: 0
  m_CorrespondingSourceObject: {fileID: 0}
  m_PrefabInstance: {fileID: 0}
  m_PrefabAsset: {fileID: 0}
  m_GameObject: {fileID: 430190951}
  m_LocalRotation: {x: 0, y: 0, z: 0, w: 1}
  m_LocalPosition: {x: 0, y: 0, z: 0}
  m_LocalScale: {x: 1, y: 1, z: 1}
  m_Children: []
  m_Father: {fileID: 0}
  m_RootOrder: 5
  m_LocalEulerAnglesHint: {x: 0, y: 0, z: 0}
--- !u!1 &449659949
GameObject:
  m_ObjectHideFlags: 0
  m_CorrespondingSourceObject: {fileID: 0}
  m_PrefabInstance: {fileID: 0}
  m_PrefabAsset: {fileID: 0}
  serializedVersion: 6
  m_Component:
  - component: {fileID: 449659950}
  m_Layer: 0
  m_Name: Waypoint (1)
  m_TagString: Untagged
  m_Icon: {fileID: 0}
  m_NavMeshLayer: 0
  m_StaticEditorFlags: 0
  m_IsActive: 1
--- !u!4 &449659950
Transform:
  m_ObjectHideFlags: 0
  m_CorrespondingSourceObject: {fileID: 0}
  m_PrefabInstance: {fileID: 0}
  m_PrefabAsset: {fileID: 0}
  m_GameObject: {fileID: 449659949}
  m_LocalRotation: {x: -0, y: -0, z: -0, w: 1}
  m_LocalPosition: {x: -4.588792, y: 11.845197, z: -20.394932}
  m_LocalScale: {x: 1, y: 1, z: 1}
  m_Children: []
  m_Father: {fileID: 894613339}
  m_RootOrder: 1
  m_LocalEulerAnglesHint: {x: 0, y: 0, z: 0}
--- !u!225 &451946044 stripped
CanvasGroup:
  m_CorrespondingSourceObject: {fileID: 2149221938242190515, guid: 25a9b51216ac79a4d8058aa58c2d6889,
    type: 3}
  m_PrefabInstance: {fileID: 5773890361524558094}
  m_PrefabAsset: {fileID: 0}
--- !u!1 &501827745
GameObject:
  m_ObjectHideFlags: 0
  m_CorrespondingSourceObject: {fileID: 0}
  m_PrefabInstance: {fileID: 0}
  m_PrefabAsset: {fileID: 0}
  serializedVersion: 6
  m_Component:
  - component: {fileID: 501827746}
  m_Layer: 0
  m_Name: Waypoint (6)
  m_TagString: Untagged
  m_Icon: {fileID: 0}
  m_NavMeshLayer: 0
  m_StaticEditorFlags: 0
  m_IsActive: 1
--- !u!4 &501827746
Transform:
  m_ObjectHideFlags: 0
  m_CorrespondingSourceObject: {fileID: 0}
  m_PrefabInstance: {fileID: 0}
  m_PrefabAsset: {fileID: 0}
  m_GameObject: {fileID: 501827745}
  m_LocalRotation: {x: -0, y: -0, z: -0, w: 1}
  m_LocalPosition: {x: 7.411208, y: 11.845197, z: -3.5949306}
  m_LocalScale: {x: 1, y: 1, z: 1}
  m_Children: []
  m_Father: {fileID: 894613339}
  m_RootOrder: 6
  m_LocalEulerAnglesHint: {x: 0, y: 0, z: 0}
--- !u!1001 &533664680
PrefabInstance:
  m_ObjectHideFlags: 0
  serializedVersion: 2
  m_Modification:
    m_TransformParent: {fileID: 840455984}
    m_Modifications:
    - target: {fileID: 1176990128951978394, guid: abeb186619cc7e6419cb81e1e4dfa162,
        type: 3}
      propertyPath: waypoints.Array.size
      value: 4
      objectReference: {fileID: 0}
    - target: {fileID: 1176990128951978394, guid: abeb186619cc7e6419cb81e1e4dfa162,
        type: 3}
      propertyPath: waypoints.Array.data[0]
      value: 
      objectReference: {fileID: 1711401386}
    - target: {fileID: 1176990128951978394, guid: abeb186619cc7e6419cb81e1e4dfa162,
        type: 3}
      propertyPath: waypoints.Array.data[1]
      value: 
      objectReference: {fileID: 2084687985}
    - target: {fileID: 1176990128951978394, guid: abeb186619cc7e6419cb81e1e4dfa162,
        type: 3}
      propertyPath: waypoints.Array.data[2]
      value: 
      objectReference: {fileID: 501827746}
    - target: {fileID: 1176990128951978394, guid: abeb186619cc7e6419cb81e1e4dfa162,
        type: 3}
      propertyPath: waypoints.Array.data[3]
      value: 
      objectReference: {fileID: 177692767}
    - target: {fileID: 4257817316179491928, guid: abeb186619cc7e6419cb81e1e4dfa162,
        type: 3}
      propertyPath: player
      value: 
      objectReference: {fileID: 2008973354732098957}
    - target: {fileID: 4257817316179491928, guid: abeb186619cc7e6419cb81e1e4dfa162,
        type: 3}
      propertyPath: gameEnding
      value: 
      objectReference: {fileID: 5642716984738007026}
    - target: {fileID: 5075534488604402034, guid: abeb186619cc7e6419cb81e1e4dfa162,
        type: 3}
      propertyPath: m_Name
      value: Ghost (2)
      objectReference: {fileID: 0}
    - target: {fileID: 6925745739663848697, guid: abeb186619cc7e6419cb81e1e4dfa162,
        type: 3}
      propertyPath: m_LocalPosition.x
      value: 3.2
      objectReference: {fileID: 0}
    - target: {fileID: 6925745739663848697, guid: abeb186619cc7e6419cb81e1e4dfa162,
        type: 3}
      propertyPath: m_LocalPosition.y
      value: 0
      objectReference: {fileID: 0}
    - target: {fileID: 6925745739663848697, guid: abeb186619cc7e6419cb81e1e4dfa162,
        type: 3}
      propertyPath: m_LocalPosition.z
      value: 6.5
      objectReference: {fileID: 0}
    - target: {fileID: 6925745739663848697, guid: abeb186619cc7e6419cb81e1e4dfa162,
        type: 3}
      propertyPath: m_LocalRotation.x
      value: -0
      objectReference: {fileID: 0}
    - target: {fileID: 6925745739663848697, guid: abeb186619cc7e6419cb81e1e4dfa162,
        type: 3}
      propertyPath: m_LocalRotation.y
      value: -0
      objectReference: {fileID: 0}
    - target: {fileID: 6925745739663848697, guid: abeb186619cc7e6419cb81e1e4dfa162,
        type: 3}
      propertyPath: m_LocalRotation.z
      value: -0
      objectReference: {fileID: 0}
    - target: {fileID: 6925745739663848697, guid: abeb186619cc7e6419cb81e1e4dfa162,
        type: 3}
      propertyPath: m_LocalRotation.w
      value: 1
      objectReference: {fileID: 0}
    - target: {fileID: 6925745739663848697, guid: abeb186619cc7e6419cb81e1e4dfa162,
        type: 3}
      propertyPath: m_RootOrder
      value: 5
      objectReference: {fileID: 0}
    - target: {fileID: 6925745739663848697, guid: abeb186619cc7e6419cb81e1e4dfa162,
        type: 3}
      propertyPath: m_LocalEulerAnglesHint.x
      value: 0
      objectReference: {fileID: 0}
    - target: {fileID: 6925745739663848697, guid: abeb186619cc7e6419cb81e1e4dfa162,
        type: 3}
      propertyPath: m_LocalEulerAnglesHint.y
      value: 0
      objectReference: {fileID: 0}
    - target: {fileID: 6925745739663848697, guid: abeb186619cc7e6419cb81e1e4dfa162,
        type: 3}
      propertyPath: m_LocalEulerAnglesHint.z
      value: 0
      objectReference: {fileID: 0}
    m_RemovedComponents: []
  m_SourcePrefab: {fileID: 100100000, guid: abeb186619cc7e6419cb81e1e4dfa162, type: 3}
--- !u!4 &533664681 stripped
Transform:
  m_CorrespondingSourceObject: {fileID: 6925745739663848697, guid: abeb186619cc7e6419cb81e1e4dfa162,
    type: 3}
  m_PrefabInstance: {fileID: 533664680}
  m_PrefabAsset: {fileID: 0}
--- !u!1 &805581756
GameObject:
  m_ObjectHideFlags: 0
  m_CorrespondingSourceObject: {fileID: 0}
  m_PrefabInstance: {fileID: 0}
  m_PrefabAsset: {fileID: 0}
  serializedVersion: 6
  m_Component:
  - component: {fileID: 805581759}
  - component: {fileID: 805581758}
  - component: {fileID: 805581760}
  - component: {fileID: 805581761}
  m_Layer: 0
  m_Name: Main Camera
  m_TagString: MainCamera
  m_Icon: {fileID: 0}
  m_NavMeshLayer: 0
  m_StaticEditorFlags: 0
  m_IsActive: 1
--- !u!20 &805581758
Camera:
  m_ObjectHideFlags: 0
  m_CorrespondingSourceObject: {fileID: 0}
  m_PrefabInstance: {fileID: 0}
  m_PrefabAsset: {fileID: 0}
  m_GameObject: {fileID: 805581756}
  m_Enabled: 1
  serializedVersion: 2
  m_ClearFlags: 1
  m_BackGroundColor: {r: 0.19215687, g: 0.3019608, b: 0.4745098, a: 0}
  m_projectionMatrixMode: 1
  m_GateFitMode: 2
  m_FOVAxisMode: 0
  m_SensorSize: {x: 36, y: 24}
  m_LensShift: {x: 0, y: 0}
  m_FocalLength: 50
  m_NormalizedViewPortRect:
    serializedVersion: 2
    x: 0
    y: 0
    width: 1
    height: 1
  near clip plane: 0.1
  far clip plane: 5000
  field of view: 48
  orthographic: 0
  orthographic size: 5
  m_Depth: -1
  m_CullingMask:
    serializedVersion: 2
    m_Bits: 4294967295
  m_RenderingPath: -1
  m_TargetTexture: {fileID: 0}
  m_TargetDisplay: 0
  m_TargetEye: 3
  m_HDR: 1
  m_AllowMSAA: 1
  m_AllowDynamicResolution: 0
  m_ForceIntoRT: 1
  m_OcclusionCulling: 1
  m_StereoConvergence: 10
  m_StereoSeparation: 0.022
--- !u!4 &805581759
Transform:
  m_ObjectHideFlags: 0
  m_CorrespondingSourceObject: {fileID: 0}
  m_PrefabInstance: {fileID: 0}
  m_PrefabAsset: {fileID: 0}
  m_GameObject: {fileID: 805581756}
  m_LocalRotation: {x: 0.4123724, y: 0, z: 0, w: 0.91101533}
  m_LocalPosition: {x: -9.8, y: 6.0108414, z: -8.479183}
  m_LocalScale: {x: 1, y: 1, z: 1}
  m_Children: []
  m_Father: {fileID: 0}
  m_RootOrder: 3
  m_LocalEulerAnglesHint: {x: 53.25, y: 0, z: 0}
--- !u!114 &805581760
MonoBehaviour:
  m_ObjectHideFlags: 0
  m_CorrespondingSourceObject: {fileID: 0}
  m_PrefabInstance: {fileID: 0}
  m_PrefabAsset: {fileID: 0}
  m_GameObject: {fileID: 805581756}
  m_Enabled: 1
  m_EditorHideFlags: 0
  m_Script: {fileID: 11500000, guid: 72ece51f2901e7445ab60da3685d6b5f, type: 3}
  m_Name: 
  m_EditorClassIdentifier: 
  m_ShowDebugText: 0
  m_ShowCameraFrustum: 0
  m_IgnoreTimeScale: 0
  m_WorldUpOverride: {fileID: 0}
  m_UpdateMethod: 2
  m_DefaultBlend:
    m_Style: 1
    m_Time: 2
    m_CustomCurve:
      serializedVersion: 2
      m_Curve: []
      m_PreInfinity: 2
      m_PostInfinity: 2
      m_RotationOrder: 4
  m_CustomBlends: {fileID: 0}
  m_CameraCutEvent:
    m_PersistentCalls:
      m_Calls: []
  m_CameraActivatedEvent:
    m_PersistentCalls:
      m_Calls: []
--- !u!114 &805581761
MonoBehaviour:
  m_ObjectHideFlags: 0
  m_CorrespondingSourceObject: {fileID: 0}
  m_PrefabInstance: {fileID: 0}
  m_PrefabAsset: {fileID: 0}
  m_GameObject: {fileID: 805581756}
  m_Enabled: 1
  m_EditorHideFlags: 0
  m_Script: {fileID: 11500000, guid: 948f4100a11a5c24981795d21301da5c, type: 3}
  m_Name: 
  m_EditorClassIdentifier: 
  volumeTrigger: {fileID: 805581759}
  volumeLayer:
    serializedVersion: 2
    m_Bits: 256
  stopNaNPropagation: 1
  finalBlitToCameraTarget: 1
  antialiasingMode: 3
  temporalAntialiasing:
    jitterSpread: 0.75
    sharpness: 0.25
    stationaryBlending: 0.95
    motionBlending: 0.85
  subpixelMorphologicalAntialiasing:
    quality: 2
  fastApproximateAntialiasing:
    fastMode: 0
    keepAlpha: 0
  fog:
    enabled: 1
    excludeSkybox: 1
  debugLayer:
    lightMeter:
      width: 512
      height: 256
      showCurves: 1
    histogram:
      width: 512
      height: 256
      channel: 3
    waveform:
      exposure: 0.12
      height: 256
    vectorscope:
      size: 256
      exposure: 0.12
    overlaySettings:
      linearDepth: 0
      motionColorIntensity: 4
      motionGridSize: 64
      colorBlindnessType: 0
      colorBlindnessStrength: 1
  m_Resources: {fileID: 11400000, guid: d82512f9c8e5d4a4d938b575d47f88d4, type: 2}
  m_ShowToolkit: 1
  m_ShowCustomSorter: 1
  breakBeforeColorGrading: 0
  m_BeforeTransparentBundles: []
  m_BeforeStackBundles: []
  m_AfterStackBundles: []
--- !u!1 &840455983
GameObject:
  m_ObjectHideFlags: 0
  m_CorrespondingSourceObject: {fileID: 0}
  m_PrefabInstance: {fileID: 0}
  m_PrefabAsset: {fileID: 0}
  serializedVersion: 6
  m_Component:
  - component: {fileID: 840455984}
  m_Layer: 0
  m_Name: Enemies
  m_TagString: Untagged
  m_Icon: {fileID: 0}
  m_NavMeshLayer: 0
  m_StaticEditorFlags: 0
  m_IsActive: 1
--- !u!4 &840455984
Transform:
  m_ObjectHideFlags: 0
  m_CorrespondingSourceObject: {fileID: 0}
  m_PrefabInstance: {fileID: 0}
  m_PrefabAsset: {fileID: 0}
  m_GameObject: {fileID: 840455983}
  m_LocalRotation: {x: 0, y: 0, z: 0, w: 1}
  m_LocalPosition: {x: 0, y: 0, z: 0}
  m_LocalScale: {x: 1, y: 1, z: 1}
  m_Children:
  - {fileID: 6199127110365035078}
  - {fileID: 50719415}
  - {fileID: 1407275731}
  - {fileID: 6925745739663848697}
  - {fileID: 1845671766}
  - {fileID: 533664681}
  - {fileID: 1420777415}
  m_Father: {fileID: 0}
  m_RootOrder: 7
  m_LocalEulerAnglesHint: {x: 0, y: 0, z: 0}
--- !u!1 &894613338
GameObject:
  m_ObjectHideFlags: 0
  m_CorrespondingSourceObject: {fileID: 0}
  m_PrefabInstance: {fileID: 0}
  m_PrefabAsset: {fileID: 0}
  serializedVersion: 6
  m_Component:
  - component: {fileID: 894613339}
  m_Layer: 0
  m_Name: Waypoints
  m_TagString: Untagged
  m_Icon: {fileID: 0}
  m_NavMeshLayer: 0
  m_StaticEditorFlags: 0
  m_IsActive: 1
--- !u!4 &894613339
Transform:
  m_ObjectHideFlags: 0
  m_CorrespondingSourceObject: {fileID: 0}
  m_PrefabInstance: {fileID: 0}
  m_PrefabAsset: {fileID: 0}
  m_GameObject: {fileID: 894613338}
  m_LocalRotation: {x: 0, y: 0, z: 0, w: 1}
  m_LocalPosition: {x: -0.91120815, y: -11.845197, z: 15.894931}
  m_LocalScale: {x: 1, y: 1, z: 1}
  m_Children:
  - {fileID: 372131256}
  - {fileID: 449659950}
  - {fileID: 2099954337}
  - {fileID: 1811816029}
  - {fileID: 1711401386}
  - {fileID: 2084687985}
  - {fileID: 501827746}
  - {fileID: 177692767}
  - {fileID: 1730677063}
  - {fileID: 1621696774}
  m_Father: {fileID: 0}
  m_RootOrder: 8
  m_LocalEulerAnglesHint: {x: 0, y: 0, z: 0}
--- !u!1 &1277510981
GameObject:
  m_ObjectHideFlags: 0
  m_CorrespondingSourceObject: {fileID: 0}
  m_PrefabInstance: {fileID: 0}
  m_PrefabAsset: {fileID: 0}
  serializedVersion: 6
  m_Component:
  - component: {fileID: 1277510982}
  - component: {fileID: 1277510983}
  m_Layer: 0
  m_Name: Gun
  m_TagString: Untagged
  m_Icon: {fileID: 5132851093641282708, guid: 0000000000000000d000000000000000, type: 0}
  m_NavMeshLayer: 0
  m_StaticEditorFlags: 0
  m_IsActive: 1
--- !u!4 &1277510982
Transform:
  m_ObjectHideFlags: 0
  m_CorrespondingSourceObject: {fileID: 0}
  m_PrefabInstance: {fileID: 0}
  m_PrefabAsset: {fileID: 0}
  m_GameObject: {fileID: 1277510981}
  m_LocalRotation: {x: 0, y: 0, z: 0, w: 1}
  m_LocalPosition: {x: 0, y: 0.75, z: 0.65}
  m_LocalScale: {x: 1, y: 1, z: 1}
  m_Children: []
  m_Father: {fileID: 2008973354732098957}
  m_RootOrder: 2
  m_LocalEulerAnglesHint: {x: 0, y: 0, z: 0}
--- !u!114 &1277510983
MonoBehaviour:
  m_ObjectHideFlags: 0
  m_CorrespondingSourceObject: {fileID: 0}
  m_PrefabInstance: {fileID: 0}
  m_PrefabAsset: {fileID: 0}
  m_GameObject: {fileID: 1277510981}
  m_Enabled: 1
  m_EditorHideFlags: 0
  m_Script: {fileID: 11500000, guid: c044b4a77aa68e04c917b59af95d4aa1, type: 3}
  m_Name: 
  m_EditorClassIdentifier: 
  _distance: 100
  _bulletPrefab: {fileID: 2349774416857169271, guid: 0ffa0dbdbfd8dcb4998ad90fb5875832,
    type: 3}
  _initialForce: 100
--- !u!1001 &1407275730
PrefabInstance:
  m_ObjectHideFlags: 0
  serializedVersion: 2
  m_Modification:
    m_TransformParent: {fileID: 840455984}
    m_Modifications:
    - target: {fileID: 4078855156467671687, guid: 39d0626ce76d1884da050e0e509a5540,
        type: 3}
      propertyPath: player
      value: 
      objectReference: {fileID: 2008973354732098957}
    - target: {fileID: 4078855156467671687, guid: 39d0626ce76d1884da050e0e509a5540,
        type: 3}
      propertyPath: gameEnding
      value: 
      objectReference: {fileID: 5642716984738007026}
    - target: {fileID: 6199127110365035078, guid: 39d0626ce76d1884da050e0e509a5540,
        type: 3}
      propertyPath: m_LocalPosition.x
      value: -4.8
      objectReference: {fileID: 0}
    - target: {fileID: 6199127110365035078, guid: 39d0626ce76d1884da050e0e509a5540,
        type: 3}
      propertyPath: m_LocalPosition.y
      value: 0
      objectReference: {fileID: 0}
    - target: {fileID: 6199127110365035078, guid: 39d0626ce76d1884da050e0e509a5540,
        type: 3}
      propertyPath: m_LocalPosition.z
      value: 10.6
      objectReference: {fileID: 0}
    - target: {fileID: 6199127110365035078, guid: 39d0626ce76d1884da050e0e509a5540,
        type: 3}
      propertyPath: m_LocalRotation.x
      value: -0
      objectReference: {fileID: 0}
    - target: {fileID: 6199127110365035078, guid: 39d0626ce76d1884da050e0e509a5540,
        type: 3}
      propertyPath: m_LocalRotation.y
      value: 0.92387867
      objectReference: {fileID: 0}
    - target: {fileID: 6199127110365035078, guid: 39d0626ce76d1884da050e0e509a5540,
        type: 3}
      propertyPath: m_LocalRotation.z
      value: -0
      objectReference: {fileID: 0}
    - target: {fileID: 6199127110365035078, guid: 39d0626ce76d1884da050e0e509a5540,
        type: 3}
      propertyPath: m_LocalRotation.w
      value: 0.38268548
      objectReference: {fileID: 0}
    - target: {fileID: 6199127110365035078, guid: 39d0626ce76d1884da050e0e509a5540,
        type: 3}
      propertyPath: m_RootOrder
      value: 2
      objectReference: {fileID: 0}
    - target: {fileID: 6199127110365035078, guid: 39d0626ce76d1884da050e0e509a5540,
        type: 3}
      propertyPath: m_LocalEulerAnglesHint.x
      value: 0
      objectReference: {fileID: 0}
    - target: {fileID: 6199127110365035078, guid: 39d0626ce76d1884da050e0e509a5540,
        type: 3}
      propertyPath: m_LocalEulerAnglesHint.y
      value: 135
      objectReference: {fileID: 0}
    - target: {fileID: 6199127110365035078, guid: 39d0626ce76d1884da050e0e509a5540,
        type: 3}
      propertyPath: m_LocalEulerAnglesHint.z
      value: 0
      objectReference: {fileID: 0}
    - target: {fileID: 8038108750564668487, guid: 39d0626ce76d1884da050e0e509a5540,
        type: 3}
      propertyPath: m_Name
      value: Gargoyle (2)
      objectReference: {fileID: 0}
    m_RemovedComponents: []
  m_SourcePrefab: {fileID: 100100000, guid: 39d0626ce76d1884da050e0e509a5540, type: 3}
--- !u!4 &1407275731 stripped
Transform:
  m_CorrespondingSourceObject: {fileID: 6199127110365035078, guid: 39d0626ce76d1884da050e0e509a5540,
    type: 3}
  m_PrefabInstance: {fileID: 1407275730}
  m_PrefabAsset: {fileID: 0}
--- !u!1 &1413067895
GameObject:
  m_ObjectHideFlags: 0
  m_CorrespondingSourceObject: {fileID: 0}
  m_PrefabInstance: {fileID: 0}
  m_PrefabAsset: {fileID: 0}
  serializedVersion: 6
  m_Component:
  - component: {fileID: 1413067896}
  - component: {fileID: 1413067897}
  m_Layer: 0
  m_Name: Caught
  m_TagString: Untagged
  m_Icon: {fileID: 0}
  m_NavMeshLayer: 0
  m_StaticEditorFlags: 0
  m_IsActive: 1
--- !u!4 &1413067896
Transform:
  m_ObjectHideFlags: 0
  m_CorrespondingSourceObject: {fileID: 0}
  m_PrefabInstance: {fileID: 0}
  m_PrefabAsset: {fileID: 0}
  m_GameObject: {fileID: 1413067895}
  m_LocalRotation: {x: 0, y: 0, z: 0, w: 1}
  m_LocalPosition: {x: 0, y: 0, z: 0}
  m_LocalScale: {x: 1, y: 1, z: 1}
  m_Children: []
  m_Father: {fileID: 1466929699}
  m_RootOrder: 2
  m_LocalEulerAnglesHint: {x: 0, y: 0, z: 0}
--- !u!82 &1413067897
AudioSource:
  m_ObjectHideFlags: 0
  m_CorrespondingSourceObject: {fileID: 0}
  m_PrefabInstance: {fileID: 0}
  m_PrefabAsset: {fileID: 0}
  m_GameObject: {fileID: 1413067895}
  m_Enabled: 1
  serializedVersion: 4
  OutputAudioMixerGroup: {fileID: 0}
  m_audioClip: {fileID: 8300000, guid: 2789d5ce62baaba4ab1ee8bb172304a6, type: 3}
  m_PlayOnAwake: 0
  m_Volume: 1
  m_Pitch: 1
  Loop: 0
  Mute: 0
  Spatialize: 0
  SpatializePostEffects: 0
  Priority: 128
  DopplerLevel: 1
  MinDistance: 1
  MaxDistance: 500
  Pan2D: 0
  rolloffMode: 0
  BypassEffects: 0
  BypassListenerEffects: 0
  BypassReverbZones: 0
  rolloffCustomCurve:
    serializedVersion: 2
    m_Curve:
    - serializedVersion: 3
      time: 0
      value: 1
      inSlope: 0
      outSlope: 0
      tangentMode: 0
      weightedMode: 0
      inWeight: 0.33333334
      outWeight: 0.33333334
    - serializedVersion: 3
      time: 1
      value: 0
      inSlope: 0
      outSlope: 0
      tangentMode: 0
      weightedMode: 0
      inWeight: 0.33333334
      outWeight: 0.33333334
    m_PreInfinity: 2
    m_PostInfinity: 2
    m_RotationOrder: 4
  panLevelCustomCurve:
    serializedVersion: 2
    m_Curve:
    - serializedVersion: 3
      time: 0
      value: 0
      inSlope: 0
      outSlope: 0
      tangentMode: 0
      weightedMode: 0
      inWeight: 0.33333334
      outWeight: 0.33333334
    m_PreInfinity: 2
    m_PostInfinity: 2
    m_RotationOrder: 4
  spreadCustomCurve:
    serializedVersion: 2
    m_Curve:
    - serializedVersion: 3
      time: 0
      value: 0
      inSlope: 0
      outSlope: 0
      tangentMode: 0
      weightedMode: 0
      inWeight: 0.33333334
      outWeight: 0.33333334
    m_PreInfinity: 2
    m_PostInfinity: 2
    m_RotationOrder: 4
  reverbZoneMixCustomCurve:
    serializedVersion: 2
    m_Curve:
    - serializedVersion: 3
      time: 0
      value: 1
      inSlope: 0
      outSlope: 0
      tangentMode: 0
      weightedMode: 0
      inWeight: 0.33333334
      outWeight: 0.33333334
    m_PreInfinity: 2
    m_PostInfinity: 2
    m_RotationOrder: 4
--- !u!1001 &1420777414
PrefabInstance:
  m_ObjectHideFlags: 0
  serializedVersion: 2
  m_Modification:
    m_TransformParent: {fileID: 840455984}
    m_Modifications:
    - target: {fileID: 1176990128951978394, guid: abeb186619cc7e6419cb81e1e4dfa162,
        type: 3}
      propertyPath: waypoints.Array.size
      value: 2
      objectReference: {fileID: 0}
    - target: {fileID: 1176990128951978394, guid: abeb186619cc7e6419cb81e1e4dfa162,
        type: 3}
      propertyPath: waypoints.Array.data[0]
      value: 
      objectReference: {fileID: 1730677063}
    - target: {fileID: 1176990128951978394, guid: abeb186619cc7e6419cb81e1e4dfa162,
        type: 3}
      propertyPath: waypoints.Array.data[1]
      value: 
      objectReference: {fileID: 1621696774}
    - target: {fileID: 4257817316179491928, guid: abeb186619cc7e6419cb81e1e4dfa162,
        type: 3}
      propertyPath: player
      value: 
      objectReference: {fileID: 2008973354732098957}
    - target: {fileID: 4257817316179491928, guid: abeb186619cc7e6419cb81e1e4dfa162,
        type: 3}
      propertyPath: gameEnding
      value: 
      objectReference: {fileID: 5642716984738007026}
    - target: {fileID: 5075534488604402034, guid: abeb186619cc7e6419cb81e1e4dfa162,
        type: 3}
      propertyPath: m_Name
      value: Ghost (3)
      objectReference: {fileID: 0}
    - target: {fileID: 6925745739663848697, guid: abeb186619cc7e6419cb81e1e4dfa162,
        type: 3}
      propertyPath: m_LocalPosition.x
      value: 7.4
      objectReference: {fileID: 0}
    - target: {fileID: 6925745739663848697, guid: abeb186619cc7e6419cb81e1e4dfa162,
        type: 3}
      propertyPath: m_LocalPosition.y
      value: 0
      objectReference: {fileID: 0}
    - target: {fileID: 6925745739663848697, guid: abeb186619cc7e6419cb81e1e4dfa162,
        type: 3}
      propertyPath: m_LocalPosition.z
      value: -3
      objectReference: {fileID: 0}
    - target: {fileID: 6925745739663848697, guid: abeb186619cc7e6419cb81e1e4dfa162,
        type: 3}
      propertyPath: m_LocalRotation.x
      value: -0
      objectReference: {fileID: 0}
    - target: {fileID: 6925745739663848697, guid: abeb186619cc7e6419cb81e1e4dfa162,
        type: 3}
      propertyPath: m_LocalRotation.y
      value: -0
      objectReference: {fileID: 0}
    - target: {fileID: 6925745739663848697, guid: abeb186619cc7e6419cb81e1e4dfa162,
        type: 3}
      propertyPath: m_LocalRotation.z
      value: -0
      objectReference: {fileID: 0}
    - target: {fileID: 6925745739663848697, guid: abeb186619cc7e6419cb81e1e4dfa162,
        type: 3}
      propertyPath: m_LocalRotation.w
      value: 1
      objectReference: {fileID: 0}
    - target: {fileID: 6925745739663848697, guid: abeb186619cc7e6419cb81e1e4dfa162,
        type: 3}
      propertyPath: m_RootOrder
      value: 6
      objectReference: {fileID: 0}
    - target: {fileID: 6925745739663848697, guid: abeb186619cc7e6419cb81e1e4dfa162,
        type: 3}
      propertyPath: m_LocalEulerAnglesHint.x
      value: 0
      objectReference: {fileID: 0}
    - target: {fileID: 6925745739663848697, guid: abeb186619cc7e6419cb81e1e4dfa162,
        type: 3}
      propertyPath: m_LocalEulerAnglesHint.y
      value: 0
      objectReference: {fileID: 0}
    - target: {fileID: 6925745739663848697, guid: abeb186619cc7e6419cb81e1e4dfa162,
        type: 3}
      propertyPath: m_LocalEulerAnglesHint.z
      value: 0
      objectReference: {fileID: 0}
    m_RemovedComponents: []
  m_SourcePrefab: {fileID: 100100000, guid: abeb186619cc7e6419cb81e1e4dfa162, type: 3}
--- !u!4 &1420777415 stripped
Transform:
  m_CorrespondingSourceObject: {fileID: 6925745739663848697, guid: abeb186619cc7e6419cb81e1e4dfa162,
    type: 3}
  m_PrefabInstance: {fileID: 1420777414}
  m_PrefabAsset: {fileID: 0}
--- !u!1 &1466929698
GameObject:
  m_ObjectHideFlags: 0
  m_CorrespondingSourceObject: {fileID: 0}
  m_PrefabInstance: {fileID: 0}
  m_PrefabAsset: {fileID: 0}
  serializedVersion: 6
  m_Component:
  - component: {fileID: 1466929699}
  m_Layer: 0
  m_Name: Audio
  m_TagString: Untagged
  m_Icon: {fileID: 0}
  m_NavMeshLayer: 0
  m_StaticEditorFlags: 0
  m_IsActive: 1
--- !u!4 &1466929699
Transform:
  m_ObjectHideFlags: 0
  m_CorrespondingSourceObject: {fileID: 0}
  m_PrefabInstance: {fileID: 0}
  m_PrefabAsset: {fileID: 0}
  m_GameObject: {fileID: 1466929698}
  m_LocalRotation: {x: 0, y: 0, z: 0, w: 1}
  m_LocalPosition: {x: 0, y: 0, z: 0}
  m_LocalScale: {x: 1, y: 1, z: 1}
  m_Children:
  - {fileID: 285650377}
  - {fileID: 206311977}
  - {fileID: 1413067896}
  m_Father: {fileID: 0}
  m_RootOrder: 9
  m_LocalEulerAnglesHint: {x: 0, y: 0, z: 0}
--- !u!1 &1527396175
GameObject:
  m_ObjectHideFlags: 0
  m_CorrespondingSourceObject: {fileID: 0}
  m_PrefabInstance: {fileID: 0}
  m_PrefabAsset: {fileID: 0}
  serializedVersion: 6
  m_Component:
  - component: {fileID: 1527396177}
  - component: {fileID: 1527396176}
  m_Layer: 0
  m_Name: VirtualCamera
  m_TagString: Untagged
  m_Icon: {fileID: 0}
  m_NavMeshLayer: 0
  m_StaticEditorFlags: 0
  m_IsActive: 1
--- !u!114 &1527396176
MonoBehaviour:
  m_ObjectHideFlags: 0
  m_CorrespondingSourceObject: {fileID: 0}
  m_PrefabInstance: {fileID: 0}
  m_PrefabAsset: {fileID: 0}
  m_GameObject: {fileID: 1527396175}
  m_Enabled: 1
  m_EditorHideFlags: 0
  m_Script: {fileID: 11500000, guid: 45e653bab7fb20e499bda25e1b646fea, type: 3}
  m_Name: 
  m_EditorClassIdentifier: 
  m_ExcludedPropertiesInInspector:
  - m_Script
  m_LockStageInInspector: 
  m_StreamingVersion: 20170927
  m_Priority: 10
  m_StandbyUpdate: 2
  m_LookAt: {fileID: 0}
  m_Follow: {fileID: 2008973354732098957}
  m_Lens:
    FieldOfView: 48
    OrthographicSize: 10
    NearClipPlane: 0.1
    FarClipPlane: 5000
    Dutch: 0
    LensShift: {x: 0, y: 0}
  m_Transitions:
    m_BlendHint: 0
    m_InheritPosition: 0
    m_OnCameraLive:
      m_PersistentCalls:
        m_Calls: []
  m_LegacyBlendHint: 0
  m_ComponentOwner: {fileID: 258812316}
--- !u!4 &1527396177
Transform:
  m_ObjectHideFlags: 0
  m_CorrespondingSourceObject: {fileID: 0}
  m_PrefabInstance: {fileID: 0}
  m_PrefabAsset: {fileID: 0}
  m_GameObject: {fileID: 1527396175}
  m_LocalRotation: {x: 0.4123724, y: -0, z: -0, w: 0.91101533}
  m_LocalPosition: {x: -9.8, y: 6.0108414, z: -8.479183}
  m_LocalScale: {x: 1, y: 1, z: 1}
  m_Children:
  - {fileID: 258812316}
  m_Father: {fileID: 0}
  m_RootOrder: 4
  m_LocalEulerAnglesHint: {x: 48.708004, y: 0, z: 0}
--- !u!1 &1621696773
GameObject:
  m_ObjectHideFlags: 0
  m_CorrespondingSourceObject: {fileID: 0}
  m_PrefabInstance: {fileID: 0}
  m_PrefabAsset: {fileID: 0}
  serializedVersion: 6
  m_Component:
  - component: {fileID: 1621696774}
  m_Layer: 0
  m_Name: Waypoint (9)
  m_TagString: Untagged
  m_Icon: {fileID: 0}
  m_NavMeshLayer: 0
  m_StaticEditorFlags: 0
  m_IsActive: 1
--- !u!4 &1621696774
Transform:
  m_ObjectHideFlags: 0
  m_CorrespondingSourceObject: {fileID: 0}
  m_PrefabInstance: {fileID: 0}
  m_PrefabAsset: {fileID: 0}
  m_GameObject: {fileID: 1621696773}
  m_LocalRotation: {x: -0, y: -0, z: -0, w: 1}
  m_LocalPosition: {x: 8.311209, y: 11.845197, z: -17.894932}
  m_LocalScale: {x: 1, y: 1, z: 1}
  m_Children: []
  m_Father: {fileID: 894613339}
  m_RootOrder: 9
  m_LocalEulerAnglesHint: {x: 0, y: 0, z: 0}
--- !u!1 &1711401385
GameObject:
  m_ObjectHideFlags: 0
  m_CorrespondingSourceObject: {fileID: 0}
  m_PrefabInstance: {fileID: 0}
  m_PrefabAsset: {fileID: 0}
  serializedVersion: 6
  m_Component:
  - component: {fileID: 1711401386}
  m_Layer: 0
  m_Name: Waypoint (4)
  m_TagString: Untagged
  m_Icon: {fileID: 0}
  m_NavMeshLayer: 0
  m_StaticEditorFlags: 0
  m_IsActive: 1
--- !u!4 &1711401386
Transform:
  m_ObjectHideFlags: 0
  m_CorrespondingSourceObject: {fileID: 0}
  m_PrefabInstance: {fileID: 0}
  m_PrefabAsset: {fileID: 0}
  m_GameObject: {fileID: 1711401385}
  m_LocalRotation: {x: -0, y: -0, z: -0, w: 1}
  m_LocalPosition: {x: 4.111208, y: 11.845197, z: -10.294931}
  m_LocalScale: {x: 1, y: 1, z: 1}
  m_Children: []
  m_Father: {fileID: 894613339}
  m_RootOrder: 4
  m_LocalEulerAnglesHint: {x: 0, y: 0, z: 0}
--- !u!1 &1730677062
GameObject:
  m_ObjectHideFlags: 0
  m_CorrespondingSourceObject: {fileID: 0}
  m_PrefabInstance: {fileID: 0}
  m_PrefabAsset: {fileID: 0}
  serializedVersion: 6
  m_Component:
  - component: {fileID: 1730677063}
  m_Layer: 0
  m_Name: Waypoint (8)
  m_TagString: Untagged
  m_Icon: {fileID: 0}
  m_NavMeshLayer: 0
  m_StaticEditorFlags: 0
  m_IsActive: 1
--- !u!4 &1730677063
Transform:
  m_ObjectHideFlags: 0
  m_CorrespondingSourceObject: {fileID: 0}
  m_PrefabInstance: {fileID: 0}
  m_PrefabAsset: {fileID: 0}
  m_GameObject: {fileID: 1730677062}
  m_LocalRotation: {x: -0, y: -0, z: -0, w: 1}
  m_LocalPosition: {x: 4.111208, y: 11.845197, z: -20.894932}
  m_LocalScale: {x: 1, y: 1, z: 1}
  m_Children: []
  m_Father: {fileID: 894613339}
  m_RootOrder: 8
  m_LocalEulerAnglesHint: {x: 0, y: 0, z: 0}
--- !u!1 &1811816028
GameObject:
  m_ObjectHideFlags: 0
  m_CorrespondingSourceObject: {fileID: 0}
  m_PrefabInstance: {fileID: 0}
  m_PrefabAsset: {fileID: 0}
  serializedVersion: 6
  m_Component:
  - component: {fileID: 1811816029}
  m_Layer: 0
  m_Name: Waypoint (3)
  m_TagString: Untagged
  m_Icon: {fileID: 0}
  m_NavMeshLayer: 0
  m_StaticEditorFlags: 0
  m_IsActive: 1
--- !u!4 &1811816029
Transform:
  m_ObjectHideFlags: 0
  m_CorrespondingSourceObject: {fileID: 0}
  m_PrefabInstance: {fileID: 0}
  m_PrefabAsset: {fileID: 0}
  m_GameObject: {fileID: 1811816028}
  m_LocalRotation: {x: -0, y: -0, z: -0, w: 1}
  m_LocalPosition: {x: 1.8112081, y: 11.845197, z: -19.394932}
  m_LocalScale: {x: 1, y: 1, z: 1}
  m_Children: []
  m_Father: {fileID: 894613339}
  m_RootOrder: 3
  m_LocalEulerAnglesHint: {x: 0, y: 0, z: 0}
--- !u!1001 &1845671765
PrefabInstance:
  m_ObjectHideFlags: 0
  serializedVersion: 2
  m_Modification:
    m_TransformParent: {fileID: 840455984}
    m_Modifications:
    - target: {fileID: 1176990128951978394, guid: abeb186619cc7e6419cb81e1e4dfa162,
        type: 3}
      propertyPath: waypoints.Array.size
      value: 2
      objectReference: {fileID: 0}
    - target: {fileID: 1176990128951978394, guid: abeb186619cc7e6419cb81e1e4dfa162,
        type: 3}
      propertyPath: waypoints.Array.data[0]
      value: 
      objectReference: {fileID: 2099954337}
    - target: {fileID: 1176990128951978394, guid: abeb186619cc7e6419cb81e1e4dfa162,
        type: 3}
      propertyPath: waypoints.Array.data[1]
      value: 
      objectReference: {fileID: 1811816029}
    - target: {fileID: 4257817316179491928, guid: abeb186619cc7e6419cb81e1e4dfa162,
        type: 3}
      propertyPath: player
      value: 
      objectReference: {fileID: 2008973354732098957}
    - target: {fileID: 4257817316179491928, guid: abeb186619cc7e6419cb81e1e4dfa162,
        type: 3}
      propertyPath: gameEnding
      value: 
      objectReference: {fileID: 5642716984738007026}
    - target: {fileID: 5075534488604402034, guid: abeb186619cc7e6419cb81e1e4dfa162,
        type: 3}
      propertyPath: m_Name
      value: Ghost (1)
      objectReference: {fileID: 0}
    - target: {fileID: 6925745739663848697, guid: abeb186619cc7e6419cb81e1e4dfa162,
        type: 3}
      propertyPath: m_LocalPosition.x
      value: 1.5
      objectReference: {fileID: 0}
    - target: {fileID: 6925745739663848697, guid: abeb186619cc7e6419cb81e1e4dfa162,
        type: 3}
      propertyPath: m_LocalPosition.y
      value: 0
      objectReference: {fileID: 0}
    - target: {fileID: 6925745739663848697, guid: abeb186619cc7e6419cb81e1e4dfa162,
        type: 3}
      propertyPath: m_LocalPosition.z
      value: 4
      objectReference: {fileID: 0}
    - target: {fileID: 6925745739663848697, guid: abeb186619cc7e6419cb81e1e4dfa162,
        type: 3}
      propertyPath: m_LocalRotation.x
      value: -0
      objectReference: {fileID: 0}
    - target: {fileID: 6925745739663848697, guid: abeb186619cc7e6419cb81e1e4dfa162,
        type: 3}
      propertyPath: m_LocalRotation.y
      value: -0
      objectReference: {fileID: 0}
    - target: {fileID: 6925745739663848697, guid: abeb186619cc7e6419cb81e1e4dfa162,
        type: 3}
      propertyPath: m_LocalRotation.z
      value: -0
      objectReference: {fileID: 0}
    - target: {fileID: 6925745739663848697, guid: abeb186619cc7e6419cb81e1e4dfa162,
        type: 3}
      propertyPath: m_LocalRotation.w
      value: 1
      objectReference: {fileID: 0}
    - target: {fileID: 6925745739663848697, guid: abeb186619cc7e6419cb81e1e4dfa162,
        type: 3}
      propertyPath: m_RootOrder
      value: 4
      objectReference: {fileID: 0}
    - target: {fileID: 6925745739663848697, guid: abeb186619cc7e6419cb81e1e4dfa162,
        type: 3}
      propertyPath: m_LocalEulerAnglesHint.x
      value: 0
      objectReference: {fileID: 0}
    - target: {fileID: 6925745739663848697, guid: abeb186619cc7e6419cb81e1e4dfa162,
        type: 3}
      propertyPath: m_LocalEulerAnglesHint.y
      value: 0
      objectReference: {fileID: 0}
    - target: {fileID: 6925745739663848697, guid: abeb186619cc7e6419cb81e1e4dfa162,
        type: 3}
      propertyPath: m_LocalEulerAnglesHint.z
      value: 0
      objectReference: {fileID: 0}
    m_RemovedComponents: []
  m_SourcePrefab: {fileID: 100100000, guid: abeb186619cc7e6419cb81e1e4dfa162, type: 3}
--- !u!4 &1845671766 stripped
Transform:
  m_CorrespondingSourceObject: {fileID: 6925745739663848697, guid: abeb186619cc7e6419cb81e1e4dfa162,
    type: 3}
  m_PrefabInstance: {fileID: 1845671765}
  m_PrefabAsset: {fileID: 0}
--- !u!1 &1944691972
GameObject:
  m_ObjectHideFlags: 0
  m_CorrespondingSourceObject: {fileID: 0}
  m_PrefabInstance: {fileID: 0}
  m_PrefabAsset: {fileID: 0}
  serializedVersion: 6
  m_Component:
  - component: {fileID: 1944691975}
  - component: {fileID: 1944691974}
  - component: {fileID: 1944691973}
  m_Layer: 0
  m_Name: EventSystem
  m_TagString: Untagged
  m_Icon: {fileID: 0}
  m_NavMeshLayer: 0
  m_StaticEditorFlags: 0
  m_IsActive: 1
--- !u!114 &1944691973
MonoBehaviour:
  m_ObjectHideFlags: 0
  m_CorrespondingSourceObject: {fileID: 0}
  m_PrefabInstance: {fileID: 0}
  m_PrefabAsset: {fileID: 0}
  m_GameObject: {fileID: 1944691972}
  m_Enabled: 1
  m_EditorHideFlags: 0
  m_Script: {fileID: 11500000, guid: 4f231c4fb786f3946a6b90b886c48677, type: 3}
  m_Name: 
  m_EditorClassIdentifier: 
  m_HorizontalAxis: Horizontal
  m_VerticalAxis: Vertical
  m_SubmitButton: Submit
  m_CancelButton: Cancel
  m_InputActionsPerSecond: 10
  m_RepeatDelay: 0.5
  m_ForceModuleActive: 0
--- !u!114 &1944691974
MonoBehaviour:
  m_ObjectHideFlags: 0
  m_CorrespondingSourceObject: {fileID: 0}
  m_PrefabInstance: {fileID: 0}
  m_PrefabAsset: {fileID: 0}
  m_GameObject: {fileID: 1944691972}
  m_Enabled: 1
  m_EditorHideFlags: 0
  m_Script: {fileID: 11500000, guid: 76c392e42b5098c458856cdf6ecaaaa1, type: 3}
  m_Name: 
  m_EditorClassIdentifier: 
  m_FirstSelected: {fileID: 0}
  m_sendNavigationEvents: 1
  m_DragThreshold: 10
--- !u!4 &1944691975
Transform:
  m_ObjectHideFlags: 0
  m_CorrespondingSourceObject: {fileID: 0}
  m_PrefabInstance: {fileID: 0}
  m_PrefabAsset: {fileID: 0}
  m_GameObject: {fileID: 1944691972}
  m_LocalRotation: {x: 0, y: 0, z: 0, w: 1}
  m_LocalPosition: {x: 0, y: 0, z: 0}
  m_LocalScale: {x: 1, y: 1, z: 1}
  m_Children: []
  m_Father: {fileID: 0}
  m_RootOrder: 2
  m_LocalEulerAnglesHint: {x: 0, y: 0, z: 0}
--- !u!1 &2084687984
GameObject:
  m_ObjectHideFlags: 0
  m_CorrespondingSourceObject: {fileID: 0}
  m_PrefabInstance: {fileID: 0}
  m_PrefabAsset: {fileID: 0}
  serializedVersion: 6
  m_Component:
  - component: {fileID: 2084687985}
  m_Layer: 0
  m_Name: Waypoint (5)
  m_TagString: Untagged
  m_Icon: {fileID: 0}
  m_NavMeshLayer: 0
  m_StaticEditorFlags: 0
  m_IsActive: 1
--- !u!4 &2084687985
Transform:
  m_ObjectHideFlags: 0
  m_CorrespondingSourceObject: {fileID: 0}
  m_PrefabInstance: {fileID: 0}
  m_PrefabAsset: {fileID: 0}
  m_GameObject: {fileID: 2084687984}
  m_LocalRotation: {x: -0, y: -0, z: -0, w: 1}
  m_LocalPosition: {x: 4.111208, y: 11.845197, z: -3.5949306}
  m_LocalScale: {x: 1, y: 1, z: 1}
  m_Children: []
  m_Father: {fileID: 894613339}
  m_RootOrder: 5
  m_LocalEulerAnglesHint: {x: 0, y: 0, z: 0}
--- !u!1 &2099954336
GameObject:
  m_ObjectHideFlags: 0
  m_CorrespondingSourceObject: {fileID: 0}
  m_PrefabInstance: {fileID: 0}
  m_PrefabAsset: {fileID: 0}
  serializedVersion: 6
  m_Component:
  - component: {fileID: 2099954337}
  m_Layer: 0
  m_Name: Waypoint (2)
  m_TagString: Untagged
  m_Icon: {fileID: 0}
  m_NavMeshLayer: 0
  m_StaticEditorFlags: 0
  m_IsActive: 1
--- !u!4 &2099954337
Transform:
  m_ObjectHideFlags: 0
  m_CorrespondingSourceObject: {fileID: 0}
  m_PrefabInstance: {fileID: 0}
  m_PrefabAsset: {fileID: 0}
  m_GameObject: {fileID: 2099954336}
  m_LocalRotation: {x: -0, y: -0, z: -0, w: 1}
  m_LocalPosition: {x: 2.1112082, y: 11.845197, z: -8.194931}
  m_LocalScale: {x: 1, y: 1, z: 1}
  m_Children: []
  m_Father: {fileID: 894613339}
  m_RootOrder: 2
  m_LocalEulerAnglesHint: {x: 0, y: 0, z: 0}
--- !u!1001 &1513577154286143051
PrefabInstance:
  m_ObjectHideFlags: 0
  serializedVersion: 2
  m_Modification:
    m_TransformParent: {fileID: 840455984}
    m_Modifications:
    - target: {fileID: 4078855156467671687, guid: 39d0626ce76d1884da050e0e509a5540,
        type: 3}
      propertyPath: player
      value: 
      objectReference: {fileID: 2008973354732098957}
    - target: {fileID: 4078855156467671687, guid: 39d0626ce76d1884da050e0e509a5540,
        type: 3}
      propertyPath: gameEnding
      value: 
      objectReference: {fileID: 5642716984738007026}
    - target: {fileID: 6199127110365035078, guid: 39d0626ce76d1884da050e0e509a5540,
        type: 3}
      propertyPath: m_LocalPosition.x
      value: -15.2
      objectReference: {fileID: 0}
    - target: {fileID: 6199127110365035078, guid: 39d0626ce76d1884da050e0e509a5540,
        type: 3}
      propertyPath: m_LocalPosition.y
      value: 0
      objectReference: {fileID: 0}
    - target: {fileID: 6199127110365035078, guid: 39d0626ce76d1884da050e0e509a5540,
        type: 3}
      propertyPath: m_LocalPosition.z
      value: 0.8
      objectReference: {fileID: 0}
    - target: {fileID: 6199127110365035078, guid: 39d0626ce76d1884da050e0e509a5540,
        type: 3}
      propertyPath: m_LocalRotation.x
      value: -0
      objectReference: {fileID: 0}
    - target: {fileID: 6199127110365035078, guid: 39d0626ce76d1884da050e0e509a5540,
        type: 3}
      propertyPath: m_LocalRotation.y
      value: 0.92387867
      objectReference: {fileID: 0}
    - target: {fileID: 6199127110365035078, guid: 39d0626ce76d1884da050e0e509a5540,
        type: 3}
      propertyPath: m_LocalRotation.z
      value: -0
      objectReference: {fileID: 0}
    - target: {fileID: 6199127110365035078, guid: 39d0626ce76d1884da050e0e509a5540,
        type: 3}
      propertyPath: m_LocalRotation.w
      value: 0.38268548
      objectReference: {fileID: 0}
    - target: {fileID: 6199127110365035078, guid: 39d0626ce76d1884da050e0e509a5540,
        type: 3}
      propertyPath: m_RootOrder
      value: 0
      objectReference: {fileID: 0}
    - target: {fileID: 6199127110365035078, guid: 39d0626ce76d1884da050e0e509a5540,
        type: 3}
      propertyPath: m_LocalEulerAnglesHint.x
      value: 0
      objectReference: {fileID: 0}
    - target: {fileID: 6199127110365035078, guid: 39d0626ce76d1884da050e0e509a5540,
        type: 3}
      propertyPath: m_LocalEulerAnglesHint.y
      value: 135
      objectReference: {fileID: 0}
    - target: {fileID: 6199127110365035078, guid: 39d0626ce76d1884da050e0e509a5540,
        type: 3}
      propertyPath: m_LocalEulerAnglesHint.z
      value: 0
      objectReference: {fileID: 0}
    - target: {fileID: 8038108750564668487, guid: 39d0626ce76d1884da050e0e509a5540,
        type: 3}
      propertyPath: m_Name
      value: Gargoyle
      objectReference: {fileID: 0}
    m_RemovedComponents: []
  m_SourcePrefab: {fileID: 100100000, guid: 39d0626ce76d1884da050e0e509a5540, type: 3}
--- !u!4 &2008973354732098957 stripped
Transform:
  m_CorrespondingSourceObject: {fileID: 2008973354732098957, guid: e58a8494f35e17f45ba5bbffdfb92517,
    type: 3}
  m_PrefabInstance: {fileID: 4012380625681614536}
  m_PrefabAsset: {fileID: 0}
--- !u!225 &3195947575264462198 stripped
CanvasGroup:
  m_CorrespondingSourceObject: {fileID: 3195947575264462198, guid: 25a9b51216ac79a4d8058aa58c2d6889,
    type: 3}
  m_PrefabInstance: {fileID: 5773890361524558094}
  m_PrefabAsset: {fileID: 0}
--- !u!1001 &3674741052492913269
PrefabInstance:
  m_ObjectHideFlags: 0
  serializedVersion: 2
  m_Modification:
    m_TransformParent: {fileID: 0}
    m_Modifications:
    - target: {fileID: 1288536327849997621, guid: 549c69af39b84624b8a053537c407def,
        type: 3}
      propertyPath: m_StaticEditorFlags
      value: 4294967295
      objectReference: {fileID: 0}
    - target: {fileID: 1288536328209358239, guid: 549c69af39b84624b8a053537c407def,
        type: 3}
      propertyPath: m_StaticEditorFlags
      value: 4294967295
      objectReference: {fileID: 0}
    - target: {fileID: 1288536329522999264, guid: 549c69af39b84624b8a053537c407def,
        type: 3}
      propertyPath: m_StaticEditorFlags
      value: 4294967295
      objectReference: {fileID: 0}
    - target: {fileID: 2684741272560899686, guid: 549c69af39b84624b8a053537c407def,
        type: 3}
      propertyPath: m_StaticEditorFlags
      value: 4294967295
      objectReference: {fileID: 0}
    - target: {fileID: 2684741273325616844, guid: 549c69af39b84624b8a053537c407def,
        type: 3}
      propertyPath: m_StaticEditorFlags
      value: 4294967295
      objectReference: {fileID: 0}
    - target: {fileID: 2684741273934308377, guid: 549c69af39b84624b8a053537c407def,
        type: 3}
      propertyPath: m_StaticEditorFlags
      value: 4294967295
      objectReference: {fileID: 0}
    - target: {fileID: 2707613077129780893, guid: 549c69af39b84624b8a053537c407def,
        type: 3}
      propertyPath: m_StaticEditorFlags
      value: 4294967295
      objectReference: {fileID: 0}
    - target: {fileID: 2707613078097262135, guid: 549c69af39b84624b8a053537c407def,
        type: 3}
      propertyPath: m_StaticEditorFlags
      value: 4294967295
      objectReference: {fileID: 0}
    - target: {fileID: 2707613078938043464, guid: 549c69af39b84624b8a053537c407def,
        type: 3}
      propertyPath: m_StaticEditorFlags
      value: 4294967295
      objectReference: {fileID: 0}
    - target: {fileID: 3446075112542413473, guid: 549c69af39b84624b8a053537c407def,
        type: 3}
      propertyPath: m_StaticEditorFlags
      value: 4294967295
      objectReference: {fileID: 0}
    - target: {fileID: 3446075113321138699, guid: 549c69af39b84624b8a053537c407def,
        type: 3}
      propertyPath: m_StaticEditorFlags
      value: 4294967295
      objectReference: {fileID: 0}
    - target: {fileID: 3446075113913061598, guid: 549c69af39b84624b8a053537c407def,
        type: 3}
      propertyPath: m_StaticEditorFlags
      value: 4294967295
      objectReference: {fileID: 0}
    - target: {fileID: 3673090252141580669, guid: 549c69af39b84624b8a053537c407def,
        type: 3}
      propertyPath: m_NavMeshLayer
      value: 0
      objectReference: {fileID: 0}
    - target: {fileID: 3673467867608526613, guid: 549c69af39b84624b8a053537c407def,
        type: 3}
      propertyPath: m_StaticEditorFlags
      value: 4294967295
      objectReference: {fileID: 0}
    - target: {fileID: 3673467868171438015, guid: 549c69af39b84624b8a053537c407def,
        type: 3}
      propertyPath: m_StaticEditorFlags
      value: 4294967295
      objectReference: {fileID: 0}
    - target: {fileID: 3673467869013095872, guid: 549c69af39b84624b8a053537c407def,
        type: 3}
      propertyPath: m_StaticEditorFlags
      value: 4294967295
      objectReference: {fileID: 0}
    - target: {fileID: 3673706105402553017, guid: 549c69af39b84624b8a053537c407def,
        type: 3}
      propertyPath: m_StaticEditorFlags
      value: 4294967295
      objectReference: {fileID: 0}
    - target: {fileID: 3674741052771420816, guid: 549c69af39b84624b8a053537c407def,
        type: 3}
      propertyPath: m_IsActive
      value: 1
      objectReference: {fileID: 0}
    - target: {fileID: 3674741052935752607, guid: 549c69af39b84624b8a053537c407def,
        type: 3}
      propertyPath: m_IsActive
      value: 1
      objectReference: {fileID: 0}
    - target: {fileID: 3674741053973066913, guid: 549c69af39b84624b8a053537c407def,
        type: 3}
      propertyPath: m_LocalPosition.x
      value: 0
      objectReference: {fileID: 0}
    - target: {fileID: 3674741053973066913, guid: 549c69af39b84624b8a053537c407def,
        type: 3}
      propertyPath: m_LocalPosition.y
      value: 0
      objectReference: {fileID: 0}
    - target: {fileID: 3674741053973066913, guid: 549c69af39b84624b8a053537c407def,
        type: 3}
      propertyPath: m_LocalPosition.z
      value: 0
      objectReference: {fileID: 0}
    - target: {fileID: 3674741053973066913, guid: 549c69af39b84624b8a053537c407def,
        type: 3}
      propertyPath: m_LocalRotation.x
      value: 0
      objectReference: {fileID: 0}
    - target: {fileID: 3674741053973066913, guid: 549c69af39b84624b8a053537c407def,
        type: 3}
      propertyPath: m_LocalRotation.y
      value: 0
      objectReference: {fileID: 0}
    - target: {fileID: 3674741053973066913, guid: 549c69af39b84624b8a053537c407def,
        type: 3}
      propertyPath: m_LocalRotation.z
      value: 0
      objectReference: {fileID: 0}
    - target: {fileID: 3674741053973066913, guid: 549c69af39b84624b8a053537c407def,
        type: 3}
      propertyPath: m_LocalRotation.w
      value: 1
      objectReference: {fileID: 0}
    - target: {fileID: 3674741053973066913, guid: 549c69af39b84624b8a053537c407def,
        type: 3}
      propertyPath: m_RootOrder
      value: 6
      objectReference: {fileID: 0}
    - target: {fileID: 3674741053973066913, guid: 549c69af39b84624b8a053537c407def,
        type: 3}
      propertyPath: m_LocalEulerAnglesHint.x
      value: 0
      objectReference: {fileID: 0}
    - target: {fileID: 3674741053973066913, guid: 549c69af39b84624b8a053537c407def,
        type: 3}
      propertyPath: m_LocalEulerAnglesHint.y
      value: 0
      objectReference: {fileID: 0}
    - target: {fileID: 3674741053973066913, guid: 549c69af39b84624b8a053537c407def,
        type: 3}
      propertyPath: m_LocalEulerAnglesHint.z
      value: 0
      objectReference: {fileID: 0}
    - target: {fileID: 3674741053973066918, guid: 549c69af39b84624b8a053537c407def,
        type: 3}
      propertyPath: m_Name
      value: Level
      objectReference: {fileID: 0}
    - target: {fileID: 3674741054517766396, guid: 549c69af39b84624b8a053537c407def,
        type: 3}
      propertyPath: m_Animation
      value: 
      objectReference: {fileID: 7400000, guid: b77168aa0289625408eac5095ddd955b, type: 2}
    - target: {fileID: 3674741054517766396, guid: 549c69af39b84624b8a053537c407def,
        type: 3}
      propertyPath: m_Animations.Array.data[0]
      value: 
      objectReference: {fileID: 7400000, guid: b77168aa0289625408eac5095ddd955b, type: 2}
    - target: {fileID: 3674741054527794187, guid: 549c69af39b84624b8a053537c407def,
        type: 3}
      propertyPath: m_IsActive
      value: 1
      objectReference: {fileID: 0}
    m_RemovedComponents: []
  m_SourcePrefab: {fileID: 100100000, guid: 549c69af39b84624b8a053537c407def, type: 3}
--- !u!1001 &4012380625681614536
PrefabInstance:
  m_ObjectHideFlags: 0
  serializedVersion: 2
  m_Modification:
    m_TransformParent: {fileID: 0}
    m_Modifications:
    - target: {fileID: 142462114116109389, guid: e58a8494f35e17f45ba5bbffdfb92517,
        type: 3}
      propertyPath: _speedMultiplier
      value: 2.5
      objectReference: {fileID: 0}
    - target: {fileID: 2008973354732098957, guid: e58a8494f35e17f45ba5bbffdfb92517,
        type: 3}
      propertyPath: m_LocalPosition.x
      value: -9.8
      objectReference: {fileID: 0}
    - target: {fileID: 2008973354732098957, guid: e58a8494f35e17f45ba5bbffdfb92517,
        type: 3}
      propertyPath: m_LocalPosition.y
      value: 0
      objectReference: {fileID: 0}
    - target: {fileID: 2008973354732098957, guid: e58a8494f35e17f45ba5bbffdfb92517,
        type: 3}
      propertyPath: m_LocalPosition.z
      value: -3.2
      objectReference: {fileID: 0}
    - target: {fileID: 2008973354732098957, guid: e58a8494f35e17f45ba5bbffdfb92517,
        type: 3}
      propertyPath: m_LocalRotation.x
      value: 0
      objectReference: {fileID: 0}
    - target: {fileID: 2008973354732098957, guid: e58a8494f35e17f45ba5bbffdfb92517,
        type: 3}
      propertyPath: m_LocalRotation.y
      value: 0
      objectReference: {fileID: 0}
    - target: {fileID: 2008973354732098957, guid: e58a8494f35e17f45ba5bbffdfb92517,
        type: 3}
      propertyPath: m_LocalRotation.z
      value: 0
      objectReference: {fileID: 0}
    - target: {fileID: 2008973354732098957, guid: e58a8494f35e17f45ba5bbffdfb92517,
        type: 3}
      propertyPath: m_LocalRotation.w
      value: 1
      objectReference: {fileID: 0}
    - target: {fileID: 2008973354732098957, guid: e58a8494f35e17f45ba5bbffdfb92517,
        type: 3}
      propertyPath: m_RootOrder
      value: 10
      objectReference: {fileID: 0}
    - target: {fileID: 2008973354732098957, guid: e58a8494f35e17f45ba5bbffdfb92517,
        type: 3}
      propertyPath: m_LocalEulerAnglesHint.x
      value: 0
      objectReference: {fileID: 0}
    - target: {fileID: 2008973354732098957, guid: e58a8494f35e17f45ba5bbffdfb92517,
        type: 3}
      propertyPath: m_LocalEulerAnglesHint.y
      value: 0
      objectReference: {fileID: 0}
    - target: {fileID: 2008973354732098957, guid: e58a8494f35e17f45ba5bbffdfb92517,
        type: 3}
      propertyPath: m_LocalEulerAnglesHint.z
      value: 0
      objectReference: {fileID: 0}
    - target: {fileID: 6077229646317852079, guid: e58a8494f35e17f45ba5bbffdfb92517,
        type: 3}
      propertyPath: m_Name
      value: JohnLemon
      objectReference: {fileID: 0}
    - target: {fileID: 6077229646317852079, guid: e58a8494f35e17f45ba5bbffdfb92517,
        type: 3}
      propertyPath: m_TagString
      value: Player
      objectReference: {fileID: 0}
    m_RemovedComponents: []
  m_SourcePrefab: {fileID: 100100000, guid: e58a8494f35e17f45ba5bbffdfb92517, type: 3}
--- !u!195 &5075534488604402036 stripped
NavMeshAgent:
  m_CorrespondingSourceObject: {fileID: 3540391287371809819, guid: abeb186619cc7e6419cb81e1e4dfa162,
    type: 3}
  m_PrefabInstance: {fileID: 6136966654407605910}
  m_PrefabAsset: {fileID: 0}
--- !u!114 &5642716984738007026 stripped
MonoBehaviour:
  m_CorrespondingSourceObject: {fileID: 5642716984738007026, guid: 3d8158841df6b824eb4a665f82a99938,
    type: 3}
  m_PrefabInstance: {fileID: 7048266704142702877}
  m_PrefabAsset: {fileID: 0}
  m_GameObject: {fileID: 0}
  m_Enabled: 1
  m_EditorHideFlags: 0
  m_Script: {fileID: 11500000, guid: 3c2912133fd6d574f81dc713829954dd, type: 3}
  m_Name: 
  m_EditorClassIdentifier: 
--- !u!1001 &5773890361524558094
PrefabInstance:
  m_ObjectHideFlags: 0
  serializedVersion: 2
  m_Modification:
    m_TransformParent: {fileID: 0}
    m_Modifications:
    - target: {fileID: 738232515021625047, guid: 25a9b51216ac79a4d8058aa58c2d6889,
        type: 3}
      propertyPath: m_LocalPosition.x
      value: 0
      objectReference: {fileID: 0}
    - target: {fileID: 738232515021625047, guid: 25a9b51216ac79a4d8058aa58c2d6889,
        type: 3}
      propertyPath: m_LocalPosition.y
      value: 0
      objectReference: {fileID: 0}
    - target: {fileID: 738232515021625047, guid: 25a9b51216ac79a4d8058aa58c2d6889,
        type: 3}
      propertyPath: m_LocalPosition.z
      value: 0
      objectReference: {fileID: 0}
    - target: {fileID: 738232515021625047, guid: 25a9b51216ac79a4d8058aa58c2d6889,
        type: 3}
      propertyPath: m_LocalRotation.x
      value: 0
      objectReference: {fileID: 0}
    - target: {fileID: 738232515021625047, guid: 25a9b51216ac79a4d8058aa58c2d6889,
        type: 3}
      propertyPath: m_LocalRotation.y
      value: 0
      objectReference: {fileID: 0}
    - target: {fileID: 738232515021625047, guid: 25a9b51216ac79a4d8058aa58c2d6889,
        type: 3}
      propertyPath: m_LocalRotation.z
      value: 0
      objectReference: {fileID: 0}
    - target: {fileID: 738232515021625047, guid: 25a9b51216ac79a4d8058aa58c2d6889,
        type: 3}
      propertyPath: m_LocalRotation.w
      value: 1
      objectReference: {fileID: 0}
    - target: {fileID: 738232515021625047, guid: 25a9b51216ac79a4d8058aa58c2d6889,
        type: 3}
      propertyPath: m_RootOrder
      value: 1
      objectReference: {fileID: 0}
    - target: {fileID: 738232515021625047, guid: 25a9b51216ac79a4d8058aa58c2d6889,
        type: 3}
      propertyPath: m_LocalEulerAnglesHint.x
      value: 0
      objectReference: {fileID: 0}
    - target: {fileID: 738232515021625047, guid: 25a9b51216ac79a4d8058aa58c2d6889,
        type: 3}
      propertyPath: m_LocalEulerAnglesHint.y
      value: 0
      objectReference: {fileID: 0}
    - target: {fileID: 738232515021625047, guid: 25a9b51216ac79a4d8058aa58c2d6889,
        type: 3}
      propertyPath: m_LocalEulerAnglesHint.z
      value: 0
      objectReference: {fileID: 0}
    - target: {fileID: 738232515021625047, guid: 25a9b51216ac79a4d8058aa58c2d6889,
        type: 3}
      propertyPath: m_AnchoredPosition.x
      value: 0
      objectReference: {fileID: 0}
    - target: {fileID: 738232515021625047, guid: 25a9b51216ac79a4d8058aa58c2d6889,
        type: 3}
      propertyPath: m_AnchoredPosition.y
      value: 0
      objectReference: {fileID: 0}
    - target: {fileID: 738232515021625047, guid: 25a9b51216ac79a4d8058aa58c2d6889,
        type: 3}
      propertyPath: m_SizeDelta.x
      value: 0
      objectReference: {fileID: 0}
    - target: {fileID: 738232515021625047, guid: 25a9b51216ac79a4d8058aa58c2d6889,
        type: 3}
      propertyPath: m_SizeDelta.y
      value: 0
      objectReference: {fileID: 0}
    - target: {fileID: 738232515021625047, guid: 25a9b51216ac79a4d8058aa58c2d6889,
        type: 3}
      propertyPath: m_AnchorMin.x
      value: 0
      objectReference: {fileID: 0}
    - target: {fileID: 738232515021625047, guid: 25a9b51216ac79a4d8058aa58c2d6889,
        type: 3}
      propertyPath: m_AnchorMin.y
      value: 0
      objectReference: {fileID: 0}
    - target: {fileID: 738232515021625047, guid: 25a9b51216ac79a4d8058aa58c2d6889,
        type: 3}
      propertyPath: m_AnchorMax.x
      value: 0
      objectReference: {fileID: 0}
    - target: {fileID: 738232515021625047, guid: 25a9b51216ac79a4d8058aa58c2d6889,
        type: 3}
      propertyPath: m_AnchorMax.y
      value: 0
      objectReference: {fileID: 0}
    - target: {fileID: 738232515021625047, guid: 25a9b51216ac79a4d8058aa58c2d6889,
        type: 3}
      propertyPath: m_Pivot.x
      value: 0
      objectReference: {fileID: 0}
    - target: {fileID: 738232515021625047, guid: 25a9b51216ac79a4d8058aa58c2d6889,
        type: 3}
      propertyPath: m_Pivot.y
      value: 0
      objectReference: {fileID: 0}
    - target: {fileID: 1272346095187288742, guid: 25a9b51216ac79a4d8058aa58c2d6889,
        type: 3}
      propertyPath: m_Name
      value: FaderCanvas
      objectReference: {fileID: 0}
    - target: {fileID: 1272346095187288742, guid: 25a9b51216ac79a4d8058aa58c2d6889,
        type: 3}
      propertyPath: m_IsActive
      value: 1
      objectReference: {fileID: 0}
    - target: {fileID: 1778264708129261651, guid: 25a9b51216ac79a4d8058aa58c2d6889,
        type: 3}
      propertyPath: m_LocalScale.x
      value: 0.7
      objectReference: {fileID: 0}
    - target: {fileID: 1778264708129261651, guid: 25a9b51216ac79a4d8058aa58c2d6889,
        type: 3}
      propertyPath: m_LocalScale.y
      value: 0.7
      objectReference: {fileID: 0}
    - target: {fileID: 1778264708129261651, guid: 25a9b51216ac79a4d8058aa58c2d6889,
        type: 3}
      propertyPath: m_LocalScale.z
      value: 0.7
      objectReference: {fileID: 0}
    - target: {fileID: 2052103665564541093, guid: 25a9b51216ac79a4d8058aa58c2d6889,
        type: 3}
      propertyPath: m_Sprite
      value: 
      objectReference: {fileID: 21300000, guid: 623a7345ca6d38f4280b86c32ffe7c15,
        type: 3}
    - target: {fileID: 7111323992326090145, guid: 25a9b51216ac79a4d8058aa58c2d6889,
        type: 3}
      propertyPath: m_Sprite
      value: 
      objectReference: {fileID: 21300000, guid: 85d46c7add1129741a0d78fadba6998e,
        type: 3}
    - target: {fileID: 8212935993891759639, guid: 25a9b51216ac79a4d8058aa58c2d6889,
        type: 3}
      propertyPath: m_AnchoredPosition.y
      value: -1
      objectReference: {fileID: 0}
    - target: {fileID: 8212935993891759639, guid: 25a9b51216ac79a4d8058aa58c2d6889,
        type: 3}
      propertyPath: m_LocalScale.x
      value: 0.7
      objectReference: {fileID: 0}
    - target: {fileID: 8212935993891759639, guid: 25a9b51216ac79a4d8058aa58c2d6889,
        type: 3}
      propertyPath: m_LocalScale.y
      value: 0.7
      objectReference: {fileID: 0}
    - target: {fileID: 8212935993891759639, guid: 25a9b51216ac79a4d8058aa58c2d6889,
        type: 3}
      propertyPath: m_LocalScale.z
      value: 0.7
      objectReference: {fileID: 0}
    m_RemovedComponents: []
  m_SourcePrefab: {fileID: 100100000, guid: 25a9b51216ac79a4d8058aa58c2d6889, type: 3}
--- !u!1 &6077229646317852079 stripped
GameObject:
  m_CorrespondingSourceObject: {fileID: 6077229646317852079, guid: e58a8494f35e17f45ba5bbffdfb92517,
    type: 3}
  m_PrefabInstance: {fileID: 4012380625681614536}
  m_PrefabAsset: {fileID: 0}
--- !u!1001 &6136966654407605910
PrefabInstance:
  m_ObjectHideFlags: 0
  serializedVersion: 2
  m_Modification:
    m_TransformParent: {fileID: 840455984}
    m_Modifications:
    - target: {fileID: 1176990128951978394, guid: abeb186619cc7e6419cb81e1e4dfa162,
        type: 3}
      propertyPath: waypoints.Array.size
      value: 2
      objectReference: {fileID: 0}
    - target: {fileID: 1176990128951978394, guid: abeb186619cc7e6419cb81e1e4dfa162,
        type: 3}
      propertyPath: waypoints.Array.data[0]
      value: 
      objectReference: {fileID: 372131256}
    - target: {fileID: 1176990128951978394, guid: abeb186619cc7e6419cb81e1e4dfa162,
        type: 3}
      propertyPath: waypoints.Array.data[1]
      value: 
      objectReference: {fileID: 449659950}
    - target: {fileID: 1176990128951978394, guid: abeb186619cc7e6419cb81e1e4dfa162,
        type: 3}
      propertyPath: _distanceForPursuit
      value: 10
      objectReference: {fileID: 0}
    - target: {fileID: 4257817316179491928, guid: abeb186619cc7e6419cb81e1e4dfa162,
        type: 3}
      propertyPath: gameEnding
      value: 
      objectReference: {fileID: 5642716984738007026}
    - target: {fileID: 4257817316179491928, guid: abeb186619cc7e6419cb81e1e4dfa162,
        type: 3}
      propertyPath: player
      value: 
      objectReference: {fileID: 2008973354732098957}
    - target: {fileID: 5075534488604402034, guid: abeb186619cc7e6419cb81e1e4dfa162,
        type: 3}
      propertyPath: m_Name
      value: Ghost
      objectReference: {fileID: 0}
    - target: {fileID: 6925745739663848697, guid: abeb186619cc7e6419cb81e1e4dfa162,
        type: 3}
      propertyPath: m_LocalPosition.x
      value: -5.3
      objectReference: {fileID: 0}
    - target: {fileID: 6925745739663848697, guid: abeb186619cc7e6419cb81e1e4dfa162,
        type: 3}
      propertyPath: m_LocalPosition.y
      value: 0
      objectReference: {fileID: 0}
    - target: {fileID: 6925745739663848697, guid: abeb186619cc7e6419cb81e1e4dfa162,
        type: 3}
      propertyPath: m_LocalPosition.z
      value: -3.1
      objectReference: {fileID: 0}
    - target: {fileID: 6925745739663848697, guid: abeb186619cc7e6419cb81e1e4dfa162,
        type: 3}
      propertyPath: m_LocalRotation.x
      value: 0
      objectReference: {fileID: 0}
    - target: {fileID: 6925745739663848697, guid: abeb186619cc7e6419cb81e1e4dfa162,
        type: 3}
      propertyPath: m_LocalRotation.y
      value: 0
      objectReference: {fileID: 0}
    - target: {fileID: 6925745739663848697, guid: abeb186619cc7e6419cb81e1e4dfa162,
        type: 3}
      propertyPath: m_LocalRotation.z
      value: 0
      objectReference: {fileID: 0}
    - target: {fileID: 6925745739663848697, guid: abeb186619cc7e6419cb81e1e4dfa162,
        type: 3}
      propertyPath: m_LocalRotation.w
      value: 1
      objectReference: {fileID: 0}
    - target: {fileID: 6925745739663848697, guid: abeb186619cc7e6419cb81e1e4dfa162,
        type: 3}
      propertyPath: m_RootOrder
      value: 3
      objectReference: {fileID: 0}
    - target: {fileID: 6925745739663848697, guid: abeb186619cc7e6419cb81e1e4dfa162,
        type: 3}
      propertyPath: m_LocalEulerAnglesHint.x
      value: 0
      objectReference: {fileID: 0}
    - target: {fileID: 6925745739663848697, guid: abeb186619cc7e6419cb81e1e4dfa162,
        type: 3}
      propertyPath: m_LocalEulerAnglesHint.y
      value: 0
      objectReference: {fileID: 0}
    - target: {fileID: 6925745739663848697, guid: abeb186619cc7e6419cb81e1e4dfa162,
        type: 3}
      propertyPath: m_LocalEulerAnglesHint.z
      value: 0
      objectReference: {fileID: 0}
    m_RemovedComponents: []
  m_SourcePrefab: {fileID: 100100000, guid: abeb186619cc7e6419cb81e1e4dfa162, type: 3}
--- !u!4 &6199127110365035078 stripped
Transform:
  m_CorrespondingSourceObject: {fileID: 6199127110365035078, guid: 39d0626ce76d1884da050e0e509a5540,
    type: 3}
  m_PrefabInstance: {fileID: 1513577154286143051}
  m_PrefabAsset: {fileID: 0}
--- !u!4 &6925745739663848697 stripped
Transform:
  m_CorrespondingSourceObject: {fileID: 6925745739663848697, guid: abeb186619cc7e6419cb81e1e4dfa162,
    type: 3}
  m_PrefabInstance: {fileID: 6136966654407605910}
  m_PrefabAsset: {fileID: 0}
--- !u!1001 &7048266704142702877
PrefabInstance:
  m_ObjectHideFlags: 0
  serializedVersion: 2
  m_Modification:
    m_TransformParent: {fileID: 0}
    m_Modifications:
    - target: {fileID: 1382306290451288063, guid: 3d8158841df6b824eb4a665f82a99938,
        type: 3}
      propertyPath: m_Name
      value: GameEnding
      objectReference: {fileID: 0}
    - target: {fileID: 1382306290451288063, guid: 3d8158841df6b824eb4a665f82a99938,
        type: 3}
      propertyPath: m_StaticEditorFlags
      value: 4294967295
      objectReference: {fileID: 0}
    - target: {fileID: 5642716984738007026, guid: 3d8158841df6b824eb4a665f82a99938,
        type: 3}
      propertyPath: dynamicObservers.Array.size
      value: 1
      objectReference: {fileID: 0}
    - target: {fileID: 5642716984738007026, guid: 3d8158841df6b824eb4a665f82a99938,
        type: 3}
      propertyPath: player
      value: 
      objectReference: {fileID: 6077229646317852079}
    - target: {fileID: 5642716984738007026, guid: 3d8158841df6b824eb4a665f82a99938,
        type: 3}
      propertyPath: dynamicObservers.Array.data[0]
      value: 
      objectReference: {fileID: 5075534488604402036}
    - target: {fileID: 5642716984738007026, guid: 3d8158841df6b824eb4a665f82a99938,
        type: 3}
      propertyPath: dynamicObservers.Array.data[1]
      value: 
      objectReference: {fileID: 5075534488604402036}
    - target: {fileID: 5642716984738007026, guid: 3d8158841df6b824eb4a665f82a99938,
        type: 3}
      propertyPath: faderCanvasGroup
      value: 
      objectReference: {fileID: 3195947575264462198}
    - target: {fileID: 5642716984738007026, guid: 3d8158841df6b824eb4a665f82a99938,
        type: 3}
      propertyPath: exitImageCanvasGroup
      value: 
      objectReference: {fileID: 3195947575264462198}
    - target: {fileID: 5642716984738007026, guid: 3d8158841df6b824eb4a665f82a99938,
        type: 3}
      propertyPath: caughtImageCanvasGroup
      value: 
      objectReference: {fileID: 451946044}
    - target: {fileID: 5642716984738007026, guid: 3d8158841df6b824eb4a665f82a99938,
        type: 3}
      propertyPath: dynamicObservers.Array.data[2]
      value: 
      objectReference: {fileID: 0}
    - target: {fileID: 5642716984738007026, guid: 3d8158841df6b824eb4a665f82a99938,
        type: 3}
      propertyPath: dynamicObservers.Array.data[3]
      value: 
      objectReference: {fileID: 0}
    - target: {fileID: 5642716984738007026, guid: 3d8158841df6b824eb4a665f82a99938,
        type: 3}
      propertyPath: dynamicObservers.Array.data[4]
      value: 
      objectReference: {fileID: 0}
    - target: {fileID: 5642716984738007026, guid: 3d8158841df6b824eb4a665f82a99938,
        type: 3}
      propertyPath: exitBackgroundImageCanvasGroup
      value: 
      objectReference: {fileID: 3195947575264462198}
    - target: {fileID: 5642716984738007026, guid: 3d8158841df6b824eb4a665f82a99938,
        type: 3}
      propertyPath: caughtBackgroundImageCanvasGroup
      value: 
      objectReference: {fileID: 451946044}
    - target: {fileID: 5642716984738007026, guid: 3d8158841df6b824eb4a665f82a99938,
        type: 3}
      propertyPath: exitAudio
      value: 
      objectReference: {fileID: 206311978}
    - target: {fileID: 5642716984738007026, guid: 3d8158841df6b824eb4a665f82a99938,
        type: 3}
      propertyPath: caughtAudio
      value: 
      objectReference: {fileID: 1413067897}
    - target: {fileID: 8564044044513400644, guid: 3d8158841df6b824eb4a665f82a99938,
        type: 3}
      propertyPath: m_LocalPosition.x
      value: 18
      objectReference: {fileID: 0}
    - target: {fileID: 8564044044513400644, guid: 3d8158841df6b824eb4a665f82a99938,
        type: 3}
      propertyPath: m_LocalPosition.y
      value: 1
      objectReference: {fileID: 0}
    - target: {fileID: 8564044044513400644, guid: 3d8158841df6b824eb4a665f82a99938,
        type: 3}
      propertyPath: m_LocalPosition.z
      value: 1.5
      objectReference: {fileID: 0}
    - target: {fileID: 8564044044513400644, guid: 3d8158841df6b824eb4a665f82a99938,
        type: 3}
      propertyPath: m_LocalRotation.x
      value: 0
      objectReference: {fileID: 0}
    - target: {fileID: 8564044044513400644, guid: 3d8158841df6b824eb4a665f82a99938,
        type: 3}
      propertyPath: m_LocalRotation.y
      value: 0
      objectReference: {fileID: 0}
    - target: {fileID: 8564044044513400644, guid: 3d8158841df6b824eb4a665f82a99938,
        type: 3}
      propertyPath: m_LocalRotation.z
      value: 0
      objectReference: {fileID: 0}
    - target: {fileID: 8564044044513400644, guid: 3d8158841df6b824eb4a665f82a99938,
        type: 3}
      propertyPath: m_LocalRotation.w
      value: 1
      objectReference: {fileID: 0}
    - target: {fileID: 8564044044513400644, guid: 3d8158841df6b824eb4a665f82a99938,
        type: 3}
      propertyPath: m_RootOrder
      value: 0
      objectReference: {fileID: 0}
    - target: {fileID: 8564044044513400644, guid: 3d8158841df6b824eb4a665f82a99938,
        type: 3}
      propertyPath: m_LocalEulerAnglesHint.x
      value: 0
      objectReference: {fileID: 0}
    - target: {fileID: 8564044044513400644, guid: 3d8158841df6b824eb4a665f82a99938,
        type: 3}
      propertyPath: m_LocalEulerAnglesHint.y
      value: 0
      objectReference: {fileID: 0}
    - target: {fileID: 8564044044513400644, guid: 3d8158841df6b824eb4a665f82a99938,
        type: 3}
      propertyPath: m_LocalEulerAnglesHint.z
      value: 0
      objectReference: {fileID: 0}
    m_RemovedComponents: []
  m_SourcePrefab: {fileID: 100100000, guid: 3d8158841df6b824eb4a665f82a99938, type: 3}
