%YAML 1.1
%TAG !u! tag:unity3d.com,2011:
--- !u!1045 &1
EditorBuildSettings:
  m_ObjectHideFlags: 0
  serializedVersion: 2
  m_Scenes:
  - enabled: 1
    path: Assets/TutorialProject/Scenes/MainScene.unity
    guid: 139fe7247bf905647981ad2d31d0f39e
  - enabled: 1
    path: Assets/Lesson 6 - Anim/Lesson6.unity
    guid: ca7af48ee6cb7e647882616e308f6c0b
  m_configObjects: {}
